[
  {
    "Sub_group": "Clin-1",
    "Parameter_label": "Diagnosis",
    "Method": "Input",
    "Parameter": "diagnosis_for_display",
    "Component_type": "text",
    "Group": "Clinical",
    "DB_ID": "diagnosis_for_display.text",
    "Primary_id": "Neoplasm.diagnosis_for_display.text",
    "Clinical_Data_Sheet": "Complex_parameters_main",
    "Label": "No"
  },
  {
    "Sub_group": "Clin-1",
    "Parameter_label": "Patient sex, age",
    "Parameter": "sex_age",
    "Component_type": "text",
    "Group": "Clinical",
    "DB_ID": "sex_age.list",
    "Primary_id": "Neoplasm.sex_age.list",
    "Clinical_Data_Sheet": "Complex_parameters_main",
    "Label": "No"
  },
  {
    "Sub_group": "Clin-1",
    "Parameter_label": "Rai stage",
    "Method": "Input",
    "Parameter": "Rai_stage",
    "Component_type": "text",
    "Group": "Clinical",
    "Source": "Input",
    "DB_ID": "Rai_stage.enumeration",
    "Primary_id": "Chronic_Lymphocytic_Leukemia.Rai_stage.enumeration",
    "Clinical_Data_Sheet": "Chronic_Lymphocytic_Leukemia",
    "Label": "Yes"
  },
  {
    "Sub_group": "Clin-1",
    "Parameter_label": "Binet stage",
    "Method": "Input",
    "Parameter": "Binet_stage",
    "Component_type": "text",
    "Group": "Clinical",
    "Source": "Input",
    "DB_ID": "Binet_stage.enumeration",
    "Primary_id": "Chronic_Lymphocytic_Leukemia.Binet_stage.enumeration",
    "Clinical_Data_Sheet": "Chronic_Lymphocytic_Leukemia",
    "Label": "Yes"
  },
  {
    "Sub_group": "Clin-1",
    "Parameter_label": "CLL-IPI group of risk",
    "Method": "Input",
    "Parameter": "CLL_IPI_group",
    "Component_type": "text",
    "Group": "Clinical",
    "Source": "Input",
    "DB_ID": "CLL_IPI_group.enumeration",
    "Primary_id": "Chronic_Lymphocytic_Leukemia.CLL_IPI_group.enumeration",
    "Clinical_Data_Sheet": "Chronic_Lymphocytic_Leukemia",
    "Label": "Yes"
  },
  {
    "Sub_group": "Clin-2",
    "Parameter_label": "Treatment status",
    "Method": "Input",
    "Parameter": "treatment_modality",
    "Component_type": "text",
    "Group": "Clinical",
    "Source": "Input",
    "DB_ID": "treatment_modality.enumeration",
    "Primary_id": "Chronic_Lymphocytic_Leukemia.treatment_modality.enumeration",
    "Clinical_Data_Sheet": "Chronic_Lymphocytic_Leukemia",
    "Label": "Yes"
  },
  {
    "Sub_group": "Clin-2",
    "Parameter_label": "Relapse",
    "Method": "Input",
    "Parameter": "relapse",
    "Component_type": "text",
    "Group": "Clinical",
    "Source": "Input",
    "DB_ID": "relapse.bool",
    "Primary_id": "Chronic_Lymphocytic_Leukemia.relapse.bool",
    "Clinical_Data_Sheet": "Chronic_Lymphocytic_Leukemia",
    "Label": "Yes"
  },
  {
    "Sub_group": 1,
    "Parameter_label": "IGHV mutation status",
    "Method": "NGS",
    "Parameter": "IGHV_mutation_status",
    "Component_type": "boolean",
    "Group": "Molecular",
    "Source": "Input",
    "DB_ID": "IGHV_mutation_status.list",
    "Primary_id": "Chronic_Lymphocytic_Leukemia.IGHV_mutation_status.list",
    "Clinical_Data_Sheet": "Chronic_Lymphocytic_Leukemia",
    "Label": "Yes",
    "Description": "The **mutational status of the immunoglobulin heavy-chain variable region gene** (IGHV) is a major prognostic factor in chronic lymphocytic leukemia (CLL) that can influence treatment decision-making. **Unmutated IGHV** was shown to correlate with an increased risk of progression and **adverse survival** in CLL patients. IGHV rearrangements involving IGHV3-21 may still have a poor prognosis. IGHV-mutated CLL usually has a durable response to conventional chemoimmunotherapy while patients with unmutated CLL may benefit from targeted therapies.  References: [28589701] (https://pubmed.ncbi.nlm.nih.gov/28589701/), [31582540] (https://pubmed.ncbi.nlm.nih.gov/31582540/), [11877310] (https://pubmed.ncbi.nlm.nih.gov/11877310/)."
  },
  {
    "Sub_group": 1,
    "Parameter_label": "TP53 mutations",
    "Method": "WES",
    "Parameter": "TP53_mutation",
    "Component_type": "string",
    "Group": "Molecular",
    "Source": "Calculation from NGS",
    "DB_ID": "TP53_mutation.list",
    "Primary_id": "Chronic_Lymphocytic_Leukemia.TP53_mutation.list",
    "Clinical_Data_Sheet": "Chronic_Lymphocytic_Leukemia",
    "Label": "Yes",
    "Description": "**TP53 mutations** are an adverse biomarker in chronic lymphocytic leukemia (CLL). The presence of TP53 mutations strongly affects treatment decision-making in CLL. TP53-mutated CLL shows unfavorable survival outcomes and **poor response to chemoimmunotherapy**. Recommended treatment options for TP53-mutated CLL are small molecule inhibitors, anti-CD52 therapy, and stem cell transplantation. TP53 encodes a major tumor suppressor protein that participates in DNA repair, apoptosis, cell cycle control, and other essential cellular processes.  References: [30442727] (https://pubmed.ncbi.nlm.nih.gov/30442727/), [31839919] (https://pubmed.ncbi.nlm.nih.gov/31839919/)."
  },
  {
    "Sub_group": 1,
    "Parameter_label": "NOTCH1 mutations",
    "Method": "WES",
    "Parameter": "NOTCH1_mutations",
    "Component_type": "string",
    "Group": "Molecular",
    "Source": "Calculation from NGS",
    "DB_ID": "NOTCH1_mutations.list",
    "Primary_id": "Chronic_Lymphocytic_Leukemia.NOTCH1_mutations.list",
    "Clinical_Data_Sheet": "Chronic_Lymphocytic_Leukemia",
    "Label": "Yes",
    "Description": "**NOTCH1 mutations** are intermediate-risk aberrations in chronic lymphocytic leukemia (CLL). NOTCH1 mutations were seen to correlate with **inferior outcomes** in CLL and may be implicated in Richter transformation. Specific agents targeting the NOTCH1 signaling are currently under investigation. NOTCH1 encodes a receptor involved in the regulation of cell proliferation, survival, and death; aberrant activation of the NOTCH1 signaling may contribute to the survival of tumor cells. NOTCH1 mutations are reported in about 10% of CLL patients and even more frequently in advanced disease. References: [29998084] (https://pubmed.ncbi.nlm.nih.gov/29998084/), [22077063] (https://pubmed.ncbi.nlm.nih.gov/22077063/), [31616059] (https://pubmed.ncbi.nlm.nih.gov/31616059/)."
  },
  {
    "Sub_group": 1,
    "Parameter_label": "BIRC3 mutations",
    "Method": "WES",
    "Parameter": "BIRC3_mutation_WES",
    "Component_type": "string",
    "Group": "Molecular",
    "Source": "Calculation from NGS",
    "DB_ID": "BIRC3_mutation_WES.list",
    "Primary_id": "Chronic_Lymphocytic_Leukemia.BIRC3_mutation_WES.list",
    "Clinical_Data_Sheet": "Chronic_Lymphocytic_Leukemia",
    "Label": "Yes",
    "Description": "**BIRC3 mutations** are high-risk alterations in chronic lymphocytic leukemia (CLL). BIRC3 mutations are associated with reduced sensitivity to fludarabine, therefore, **poor response to conventional chemoimmunotherapy**. Biallelic BIRC3 mutations may be an independent predictor of poor survival outcomes in 11q-deleted CLL. BIRC3 is located on chromosome 11q and encodes a negative regulator of the non-canonical NF-kB pathway. Its loss due to 11q deletion or inactivating mutations leads to constitutive tumor-promoting signaling. Inactivating BIRC3 mutations are found in 3% to 5% of all CLL cases. References: [31371416] (https://pubmed.ncbi.nlm.nih.gov/31371416/), [32005653] (https://pubmed.ncbi.nlm.nih.gov/32005653/), [32015491] (https://pubmed.ncbi.nlm.nih.gov/32015491/)."
  },
  {
    "Sub_group": 1,
    "Parameter_label": "SF3B1 mutations",
    "Method": "WES",
    "Parameter": "SF3B1_mutation_WES",
    "Component_type": "string",
    "Group": "Molecular",
    "Source": "Calculation from NGS",
    "DB_ID": "SF3B1_mutation_WES.list",
    "Primary_id": "Chronic_Lymphocytic_Leukemia.SF3B1_mutation_WES.list",
    "Clinical_Data_Sheet": "Chronic_Lymphocytic_Leukemia",
    "Label": "Yes",
    "Description": "**SF3B1 mutations** are intermediate-risk aberrations in chronic lymphocytic leukemia (CLL). SF3B1 mutations were shown to correlate with more **advanced disease, aggressive CLL behavior, and shorter survival**. SF3B1 mutations are regarded as anomalies associated with disease progression rather than CLL initiation. Mutated SF3F1 may activate NOTCH1 signaling and downregulate surface expression of CD20. SF3B1 mutations have the potential as therapeutic targets. The protein encoded by SF3B1 is involved in mRNA splicing and processing of miRNAs. SF3B1 mutations are reported in about 10% of CLL patients. References: [23568491] (https://pubmed.ncbi.nlm.nih.gov/23568491/), [33121237] (https://pubmed.ncbi.nlm.nih.gov/33121237/)."
  },
  {
    "Sub_group": 1,
    "Parameter_label": "BTK mutations",
    "Method": "WES",
    "Parameter": "BTK_mutation_WES",
    "Component_type": "string",
    "Group": "Molecular",
    "Source": "Calculation from NGS",
    "DB_ID": "BTK_mutation_WES.list",
    "Primary_id": "Chronic_Lymphocytic_Leukemia.BTK_mutation_WES.list",
    "Clinical_Data_Sheet": "Chronic_Lymphocytic_Leukemia",
    "Label": "Yes",
    "Description": "**BTK mutations** are often associated with the failure of BTK inhibitors in chronic lymphocytic leukemia (CLL). BTK mutations were shown to mediate **acquired resistance to ibrutinib** and/or other BTK inhibitors, which cannot be overcome by dose escalation only.  **BTK C481S** is the most common mutation associated with ibrutinib resistance in CLL as it affects the binding site and reduces the drug affinity for BTK. BTK encodes a tyrosine kinase playing an essential role in the development, differentiation, and signaling of B cells. BTK mutations are found in about 57% of CLL patients. References: [32670873] (https://pubmed.ncbi.nlm.nih.gov/32670873/)."
  },
  {
    "Sub_group": 2,
    "Parameter_label": "CD19 expression",
    "Group_label": "CD19 expression",
    "Parameter_group": "CD19_expression",
    "Show_priority": 1,
    "Method_priority": "IHC,RNAseq",
    "Method_for_grouping": "IHC",
    "Method": "IHC",
    "Parameter": "CD19_expression",
    "Component_type": "boolean",
    "Group": "Molecular",
    "Source": "Input",
    "DB_ID": "CD19_expression.enumeration",
    "Primary_id": "Chronic_Lymphocytic_Leukemia.CD19_expression.enumeration",
    "Clinical_Data_Sheet": "Chronic_Lymphocytic_Leukemia",
    "Label": "Yes",
    "Description": "**CD19** is a therapeutic target in chronic lymphocytic leukemia (CLL). CD19 encodes a surface antigen specific for B lymphocytes and is expressed on both normal and leukemic cells. CD19 is used as a **target for immunotherapeutic approaches**, such as CAR T-cell therapy or monoclonal antibodies. Although anti-CD19 CAR T cells have shown durable response in pretreated CLL patients, their efficacy varies depending on the presence or absence of certain driver mutations. CD19 is required for normal proliferation and differentiation of B cells and antibody production in response to antigen encounter. References: [32217767] (https://pubmed.ncbi.nlm.nih.gov/32217767/), [19965644] (https://pubmed.ncbi.nlm.nih.gov/19965644/)."
  },
  {
    "Sub_group": 2,
    "Parameter_label": "CD19 expression",
    "Group_label": "CD19 expression",
    "Parameter_group": "CD19_expression",
    "Show_priority": 1,
    "Method_priority": "IHC,RNAseq",
    "Method_for_grouping": "RNAseq",
    "Method": "RNAseq ",
    "Parameter": "CD19_expression_RNAseq",
    "Component_type": "expression",
    "Group": "Molecular",
    "Source": "Calculation from NGS",
    "DB_ID": "CD19_expression_RNAseq.numeric",
    "Primary_id": "Chronic_Lymphocytic_Leukemia.CD19_expression_RNAseq.numeric",
    "Clinical_Data_Sheet": "Chronic_Lymphocytic_Leukemia",
    "Label": "Yes"
  },
  {
    "Sub_group": 2,
    "Parameter_label": "CD20 expression",
    "Group_label": "CD20 expression",
    "Parameter_group": "CD20_expression",
    "Show_priority": 1,
    "Method_priority": "IHC,RNAseq",
    "Method_for_grouping": "IHC",
    "Method": "IHC",
    "Parameter": "CD20_expression",
    "Component_type": "boolean",
    "Group": "Molecular",
    "Source": "Input",
    "DB_ID": "CD20_expression.enumeration",
    "Primary_id": "Chronic_Lymphocytic_Leukemia.CD20_expression.enumeration",
    "Clinical_Data_Sheet": "Chronic_Lymphocytic_Leukemia",
    "Label": "Yes",
    "Description": "**CD20** is a therapeutic target in chronic lymphocytic leukemia (CLL). CD20 is commonly weakly expressed on CLL cells. Research data suggest that high CD20 expression (measured by flow cytometry) may be associated with a more **favorable prognosis** in CLL patients. Several specific **anti-CD20 therapeutic antibodies** have been developed and are currently approved for CLL treatment as monotherapy or together with chemotherapeutic or other targeted agents. CD20 is encoded by the MS4A1 gene; it is a cell surface antigen that plays a role in the development, differentiation, and activation of B cells. References: [23659384] (https://pubmed.ncbi.nlm.nih.gov/23659384/), [30846506] (https://pubmed.ncbi.nlm.nih.gov/30846506/)."
  },
  {
    "Sub_group": 2,
    "Parameter_label": "CD20 expression",
    "Group_label": "CD20 expression",
    "Parameter_group": "CD20_expression",
    "Show_priority": 1,
    "Method_priority": "IHC,RNAseq",
    "Method_for_grouping": "RNAseq",
    "Method": "RNAseq",
    "Parameter": "CD20_expression_RNAseq",
    "Component_type": "expression",
    "Group": "Molecular",
    "Source": "Calculation from NGS",
    "DB_ID": "CD20_expression_RNAseq.numeric",
    "Primary_id": "Chronic_Lymphocytic_Leukemia.CD20_expression_RNAseq.numeric",
    "Clinical_Data_Sheet": "Chronic_Lymphocytic_Leukemia",
    "Label": "Yes"
  },
  {
    "Sub_group": 2,
    "Parameter_label": "Cyclin D1 expression",
    "Group_label": "Cyclin D1 expression",
    "Parameter_group": "Cyclin_D1 expression",
    "Show_priority": 1,
    "Method_priority": "IHC,RNAseq",
    "Method_for_grouping": "IHC",
    "Method": "IHC",
    "Parameter": "CyclinD1_expression",
    "Component_type": "boolean",
    "Group": "Molecular",
    "Source": "Input",
    "DB_ID": "CyclinD1_expression.bool",
    "Primary_id": "Chronic_Lymphocytic_Leukemia.CyclinD1_expression.bool",
    "Clinical_Data_Sheet": "Chronic_Lymphocytic_Leukemia",
    "Label": "Yes",
    "Description": "The cyclin D1 protooncogene is a regulator of cell cycle progression from the G1 to S phase, which is not expressed in normal lymphoid cells but is overexpressed in a subset of B-cell/plasma cell neoplasms. Cyclin D1+ CLL/SLL has traditionally been considered to be rare and in some reported cases the diagnosis is considered controversial. A recent series reported cyclin D1 positivity in PCs in 10% of CLLs including in 20% of lymph node biopsies, an observation noted in an earlier case report. [15166673](https://doi.org/10.1097/01.pas.0000126054.95798.94) "
  },
  {
    "Sub_group": 2,
    "Parameter_label": "Cyclin D1 expression",
    "Group_label": "Cyclin D1 expression",
    "Parameter_group": "Cyclin_D1 expression",
    "Show_priority": 1,
    "Method_priority": "IHC,RNAseq",
    "Method_for_grouping": "RNAseq",
    "Method": "RNAseq",
    "Parameter": "Cyclin_D1_expression_RNAseq",
    "Component_type": "expression",
    "Group": "Molecular",
    "Source": "Calculation from NGS",
    "DB_ID": "Cyclin_D1_expression_RNAseq.numeric",
    "Primary_id": "Chronic_Lymphocytic_Leukemia.Cyclin_D1_expression_RNAseq.numeric",
    "Clinical_Data_Sheet": "Chronic_Lymphocytic_Leukemia",
    "Label": "Yes"
  },
  {
    "Sub_group": 2,
    "Parameter_label": "CD38 expression",
    "Group_label": "CD38 expression",
    "Parameter_group": "CD38_expression",
    "Show_priority": 1,
    "Method_priority": "IHC,RNAseq",
    "Method_for_grouping": "IHC",
    "Method": "IHC",
    "Parameter": "CD38_expression",
    "Component_type": "boolean",
    "Group": "Molecular",
    "Source": "Input",
    "DB_ID": "CD38_expression.bool",
    "Primary_id": "Chronic_Lymphocytic_Leukemia.CD38_expression.bool",
    "Clinical_Data_Sheet": "Chronic_Lymphocytic_Leukemia",
    "Label": "Yes",
    "Description": "CD38 is a transmembrane glycoprotein expressed on the surface of leukemic cells in a significant percentage of patients with B-cell chronic lymphocytic leukemia (B-CLL). Patients with CD38+ samples have significantly aggressive disease regardless of their clinical stage.[17699742](https://doi.org/10.1182/blood-2007-06-094029) Measurement of CD38 expression by flow cytometry should become a routine test in the evaluation of patients with CLL. CD38 ligation prolongs CLL-cell survival\rand favors leukemic cell proliferation with its\rexpression being regulated by the microenvironment\rand serving as a marker. [24561793](https://dx.doi.org/10.3324%2Fhaematol.2013.091405)"
  },
  {
    "Sub_group": 2,
    "Parameter_label": "CD38 expression",
    "Group_label": "CD38 expression",
    "Parameter_group": "CD38_expression",
    "Show_priority": 1,
    "Method_priority": "IHC,RNAseq",
    "Method_for_grouping": "RNAseq",
    "Method": "RNAseq",
    "Parameter": "CD38_expression_RNAseq",
    "Component_type": "expression",
    "Group": "Molecular",
    "Source": "Calculation from NGS",
    "DB_ID": "CD38_expression_RNAseq.numeric",
    "Primary_id": "Chronic_Lymphocytic_Leukemia.CD38_expression_RNAseq.numeric",
    "Clinical_Data_Sheet": "Chronic_Lymphocytic_Leukemia",
    "Label": "Yes"
  },
  {
    "Sub_group": 2,
    "Parameter_label": "CD5 expression",
    "Group_label": "CD5 expression",
    "Parameter_group": "CD5_expression",
    "Show_priority": 1,
    "Method_priority": "IHC,RNAseq",
    "Method_for_grouping": "IHC",
    "Method": "IHC",
    "Parameter": "CD5_expression",
    "Component_type": "boolean",
    "Group": "Molecular",
    "Source": "Input",
    "DB_ID": "CD5_expression.bool",
    "Primary_id": "Chronic_Lymphocytic_Leukemia.CD5_expression.bool",
    "Clinical_Data_Sheet": "Chronic_Lymphocytic_Leukemia",
    "Label": "Yes",
    "Description": "CD5 is a T cell marker, aberrantly expressed in B cell chronic lymphocytic leukemia (B-CLL) and mantle cell lymphoma (MCL). Due to the direct effect of CD5 on IL-10 expression and the pivotal role of this cytokine in CLL, it would seem that any factor that can inhibit CD5 or its dependent agents (such as CD5 or IL-10 mRNA regulation), or the induction of a decoy receptor for IL-10 can help improve the clinical course of these patients.[31044025](https://dx.doi.org/10.4081%2Foncol.2019.400)"
  },
  {
    "Sub_group": 2,
    "Parameter_label": "CD5 expression",
    "Group_label": "CD5 expression",
    "Parameter_group": "CD5_expression",
    "Show_priority": 1,
    "Method_priority": "IHC,RNAseq",
    "Method_for_grouping": "RNAseq",
    "Method": "RNAseq",
    "Parameter": "CD5_expression_RNAseq",
    "Component_type": "expression",
    "Group": "Molecular",
    "Source": "Calculation from NGS",
    "DB_ID": "CD5_expression_RNAseq.numeric",
    "Primary_id": "Chronic_Lymphocytic_Leukemia.CD5_expression_RNAseq.numeric",
    "Clinical_Data_Sheet": "Chronic_Lymphocytic_Leukemia",
    "Label": "Yes"
  },
  {
    "Sub_group": 2,
    "Parameter_label": "CD23 expression",
    "Group_label": "CD23 expression",
    "Parameter_group": "CD23_expression",
    "Show_priority": 1,
    "Method_priority": "IHC,RNAseq",
    "Method_for_grouping": "IHC",
    "Method": "IHC",
    "Parameter": "CD23_expression",
    "Component_type": "boolean",
    "Group": "Molecular",
    "Source": "Input",
    "DB_ID": "CD23_expression.bool",
    "Primary_id": "Chronic_Lymphocytic_Leukemia.CD23_expression.bool",
    "Clinical_Data_Sheet": "Chronic_Lymphocytic_Leukemia",
    "Label": "Yes",
    "Description": "CD23 is a low-affinity receptor for IgE that\rcan be cleaved from cell surfaces to yield soluble\rCD23 (sCD23) that has cytokine-like activities.[20831712](https://doi.org/10.1111/j.1365-2249.2010.04210.x). CD23 has been used in the differential diagnosis\rbetween MCL and CLL/SLL by immunohistochemistry. CD23 expression is closely associated with progression\rof CLL cells through cell cycle made\revident by increased CD23 expression in proliferation\rcentres, close correlation between\rthe strength of CD23 and Ki67 expression by\rflow cytometry and loss of CD23 expression\rcoinciding with maximal inhibition of proliferation\rduring ibrutinib treatment. [17979945](https://doi.org/10.1111/j.1365-2141.2007.06790.x)"
  },
  {
    "Sub_group": 2,
    "Parameter_label": "CD23 expression",
    "Group_label": "CD23 expression",
    "Parameter_group": "CD23_expression",
    "Show_priority": 1,
    "Method_priority": "IHC,RNAseq",
    "Method_for_grouping": "RNAseq",
    "Method": "RNAseq",
    "Parameter": "CD23_expression_RNAseq",
    "Component_type": "expression",
    "Group": "Molecular",
    "Source": "Calculation from NGS",
    "DB_ID": "CD23_expression_RNAseq.numeric",
    "Primary_id": "Chronic_Lymphocytic_Leukemia.CD23_expression_RNAseq.numeric",
    "Clinical_Data_Sheet": "Chronic_Lymphocytic_Leukemia",
    "Label": "Yes"
  },
  {
    "Sub_group": 2,
    "Parameter_label": "TLR9 expression",
    "Group_label": "TLR9 expression",
    "Parameter_group": "TLR9_expression",
    "Show_priority": 1,
    "Method_priority": "IHC,RNAseq",
    "Method_for_grouping": "IHC",
    "Method": "IHC",
    "Parameter": "TLR9_expression",
    "Component_type": "boolean",
    "Group": "Molecular",
    "Source": "Input",
    "DB_ID": "TLR9_expression.numeric",
    "Primary_id": "Chronic_Lymphocytic_Leukemia.TLR9_expression.numeric",
    "Clinical_Data_Sheet": "Chronic_Lymphocytic_Leukemia",
    "Label": "Yes"
  },
  {
    "Sub_group": 2,
    "Parameter_label": "TLR9 expression",
    "Group_label": "TLR9 expression",
    "Parameter_group": "TLR9_expression",
    "Show_priority": 1,
    "Method_priority": "IHC,RNAseq",
    "Method_for_grouping": "RNAseq",
    "Method": "RNAseq",
    "Parameter": "TLR9_expression_RNAseq",
    "Component_type": "expression",
    "Group": "Molecular",
    "Source": "Calculation from NGS",
    "DB_ID": "TLR9_expression_RNAseq.numeric",
    "Primary_id": "Chronic_Lymphocytic_Leukemia.TLR9_expression_RNAseq.numeric",
    "Clinical_Data_Sheet": "Chronic_Lymphocytic_Leukemia",
    "Label": "Yes"
  },
  {
    "Sub_group": 3,
    "Parameter_label": "Trisomy 12",
    "Method": "WES",
    "Parameter": "Trisomy_12_WES",
    "Component_type": "boolean",
    "Group": "Molecular",
    "Source": "Calculation from NGS",
    "DB_ID": "Trisomy_12_WES.list",
    "Primary_id": "Chronic_Lymphocytic_Leukemia.Trisomy_12_WES.list",
    "Clinical_Data_Sheet": "Chronic_Lymphocytic_Leukemia",
    "Label": "Yes",
    "Description": "Trisomy 12 is detected in 10–20%\rof CLL but is also detectable in other B-cell disorders\rincluding 17% of mantle cell lymphoma\r and 4% of Waldenstrom macroglobulinemia. [23243274](https://doi.org/10.1182/blood-2012-09-458265) Trisomy 12 is\rassociated with atypically strong CD20/FMC7 and\rsIg/CD79b as well as atypical morphology and does not appear to be an adverse prognostic\rfactor in the absence of NOTCH1 mutation. "
  },
  {
    "Sub_group": 3,
    "Parameter_label": "del(17p)",
    "Method": "WES",
    "Parameter": "17p_deletion_WES",
    "Component_type": "boolean",
    "Group": "Molecular",
    "Source": "Input",
    "DB_ID": "17p_deletion_WES.enumeration",
    "Primary_id": "Chronic_Lymphocytic_Leukemia.17p_deletion_WES.enumeration",
    "Clinical_Data_Sheet": "Chronic_Lymphocytic_Leukemia",
    "Label": "Yes",
    "Description": "In chronic lymphocytic leukemia (CLL), deletion (del) of the short arm of chromosome 17 (17p13) is found in 5 to 8% of patients requiring first-line treatment and is associated with rapid disease progression as well as a poor response to treatment with a median overall survival (OS) of 2 to 3 years from the time of first-line treatment. (https://doi.org/10.1186/s40425-019-0509-0) Patients with deletion 17p or TP53 gene mutation have poor outcomes with conventional chemoimmunotherapy regimens such as FCR (fludarabine-cyclophosphamide-rituximab [Rituxan]), in part due to lack of wild-type p53 function, an important pathway for mediating the cytotoxicity of purine analogs. [23330347]"
  },
  {
    "Sub_group": 3,
    "Parameter_label": "del(13q)",
    "Method": "WES",
    "Parameter": "13q_deletion_WES",
    "Component_type": "boolean",
    "Group": "Molecular",
    "Source": "Calculation from NGS",
    "DB_ID": "13q_deletion_WES.list",
    "Primary_id": "Chronic_Lymphocytic_Leukemia.13q_deletion_WES.list",
    "Clinical_Data_Sheet": "Chronic_Lymphocytic_Leukemia",
    "Label": "Yes",
    "Description": "13q14 is the most frequently deleted region in\rCLL and contains two microRNA genes mir-\r15a and mi-r16-1 within a 30-kb region between\rexons 2 and 5 of the DLEU2 gene. Mir15/16\r negatively regulates Bcl2 at a post-transcriptional\rlevel, and the deletion results in overexpression\rof BCL2.[12434020](https://doi.org/10.1073/pnas.242606799) Deletion of 13q14 is reported to\rbe an early or founder genomic lesion and\ris sufficient to cause development of indolent\rB-lymphoproliferative disorders in mice that recapitulate\rthe spectrum of CLL-associated phenotypes\robserved in humans. [23415222](https://doi.org/10.1016/j.cell.2013.01.019)"
  },
  {
    "Sub_group": 3,
    "Parameter_label": "del(11q)",
    "Method": "WES",
    "Parameter": "11q_deletion_WES",
    "Component_type": "boolean",
    "Group": "Molecular",
    "Source": "Calculation from NGS",
    "DB_ID": "11q_deletion_WES.list",
    "Primary_id": "Chronic_Lymphocytic_Leukemia.11q_deletion_WES.list",
    "Clinical_Data_Sheet": "Chronic_Lymphocytic_Leukemia",
    "Label": "Yes",
    "Description": "Full or partial deletions of the q-arm of chromosome\r11 (del11q) are the second most frequent\rchromosomal aberration found in CLL, occurring\rin 10–20% of patients. With the addition of rituximab to the chemotherapy\rbackbone, del(11q) CLL without additional\rpoor prognostic markers has become standard\rrisk with up to 40% of patients achieving complete\r remission. The chromosomal region most commonly deleted\ras a result of del(11q) known as the minimally\rdeleted region (MDR) is a small section located at\rthe q22.3 band of chromosome 11. Specifically,\rthis is the location of the tumour suppressor gene\rataxia telangiectasia mutated (ATM), which\rencodes a protein that is crucial for the cellular\rresponse to DNA damage. [27413114](https://doi.org/10.1158/1535-7163.mct-15-0945)"
  },
  {
    "Sub_group": 3,
    "Parameter_label": "del(6q)",
    "Method": "WES",
    "Parameter": "6q_deletion_WES",
    "Component_type": "boolean",
    "Group": "Molecular",
    "Source": "Calculation from NGS",
    "DB_ID": "6q_deletion_WES.list",
    "Primary_id": "Chronic_Lymphocytic_Leukemia.6q_deletion_WES.list",
    "Clinical_Data_Sheet": "Chronic_Lymphocytic_Leukemia",
    "Label": "Yes",
    "Description": "Approximately 10 % of CLL patients have interstitial material loss on the q arm of\rchromosome 11 (del11q) at diagnosis. All del11q which include the ATM locus are considered\r“classical” lesions; these all involve one chromosome only—homozygous\rdel11q do not exist. The ATM gene has received most of the attention of the CLL del11q research,\rdespite the considerable diversity in the 11q lesion’s size. In contrast to del17p and\rTP53, mutated ATM is only detected in a minority of 11q-deleted CLL and at\rvarying frequencies. [27413114](https://doi.org/10.1158/1535-7163.mct-15-0945)"
  },
  {
    "Sub_group": 3,
    "Parameter_label": "t(11;14)",
    "Method": "FISH",
    "Parameter": "t(11_14)_translocation",
    "Component_type": "boolean",
    "Group": "Molecular",
    "Source": "Input",
    "DB_ID": "t(11_14)_translocation.list",
    "Primary_id": "Chronic_Lymphocytic_Leukemia.t(11_14)_translocation.list",
    "Clinical_Data_Sheet": "Chronic_Lymphocytic_Leukemia",
    "Label": "Yes",
    "Description": "The juxtaposition of the immunoglobulin heavy chain joining region on chromosome 14 to a chromosomal locus on 11q13 places the CCND1/BCL1 gene under the control of the IGH enhancer, resulting in aberrant overexpression of cyclin D1, a positive regulator of the cell cycle. t(11;14) identifies a cytologically atypical subset of B-CLL, characterized by frequent cytologic and cytogenetic evolution and by a distinct immunological profile, sharing some biological features with mantle cell lymphoma. "
  }
]
