[
  {
    "Sub_group": "Clin-1",
    "Parameter_label": "Diagnosis",
    "Parameter": "diagnosis_for_display",
    "Component_type": "text",
    "Group": "Clinical",
    "DB_ID": "diagnosis_for_display.text",
    "Primary_id": "Neoplasm.diagnosis_for_display.text",
    "Clinical_Data_Sheet": "Complex_parameters_main",
    "Label": "No"
  },
  {
    "Sub_group": "Clin-1",
    "Parameter_label": "Patient sex, age",
    "Parameter": "sex_age",
    "Component_type": "text",
    "Group": "Clinical",
    "DB_ID": "sex_age.list",
    "Primary_id": "Neoplasm.sex_age.list",
    "Clinical_Data_Sheet": "Complex_parameters_main",
    "Label": "No"
  },
  {
    "Sub_group": "Clin-1",
    "Parameter_label": "TNM stage",
    "Parameter": "tnm_stage",
    "Component_type": "text",
    "Group": "Clinical",
    "DB_ID": "tnm_stage.list",
    "Primary_id": "Solid_Neoplasm.tnm_stage.list",
    "Clinical_Data_Sheet": "Complex_parameters_main",
    "Label": "No"
  },
  {
    "Sub_group": "Clin-1",
    "Parameter_label": "Stage",
    "Parameter": "stage",
    "Component_type": "text",
    "Group": "Clinical",
    "DB_ID": "stage.enumeration",
    "Primary_id": "Cutaneous_Melanoma.stage.enumeration",
    "Clinical_Data_Sheet": "Cutaneous_Melanoma",
    "Label": "Yes"
  },
  {
    "Sub_group": "Clin-1",
    "Parameter_label": "ECOG",
    "Parameter": "ecog",
    "Component_type": "text",
    "Group": "Clinical",
    "DB_ID": "ecog.enumeration",
    "Primary_id": "Cutaneous_Melanoma.ecog.enumeration",
    "Clinical_Data_Sheet": "Cutaneous_Melanoma",
    "Label": "Yes"
  },
  {
    "Sub_group": "Clin-1",
    "Parameter_label": "Breslow Thickness",
    "Parameter": "Breslow",
    "Component_type": "text",
    "Group": "Clinical",
    "DB_ID": "Breslow.numeric",
    "Primary_id": "Cutaneous_Melanoma.Breslow.numeric",
    "Clinical_Data_Sheet": "Cutaneous_Melanoma",
    "Label": "Yes"
  },
  {
    "Sub_group": "Clin-1",
    "Parameter_label": "Sentinel lymph node biopsy status",
    "Parameter": "sentinel_lymph_node",
    "Component_type": "text",
    "Group": "Clinical",
    "DB_ID": "sentinel_lymph_node.enumeration",
    "Primary_id": "Cutaneous_Melanoma.sentinel_lymph_node.enumeration",
    "Clinical_Data_Sheet": "Cutaneous_Melanoma",
    "Label": "Yes"
  },
  {
    "Sub_group": "Clin-1",
    "Parameter_label": "Treatment status",
    "Parameter": "treatment_modality",
    "Component_type": "text",
    "Group": "Clinical",
    "DB_ID": "treatment_modality.enumeration",
    "Primary_id": "Cutaneous_Melanoma.treatment_modality.enumeration",
    "Clinical_Data_Sheet": "Cutaneous_Melanoma",
    "Label": "Yes"
  },
  {
    "Sub_group": 1,
    "Parameter_label": "BRAF mutations",
    "Method": "WES",
    "Parameter": "braf_mutation",
    "Component_type": "string",
    "Group": "Molecular",
    "Source": "Calculation from NGS",
    "DB_ID": "braf_mutation.list",
    "Primary_id": "Cutaneous_Melanoma.braf_mutation.list",
    "Clinical_Data_Sheet": "Cutaneous_Melanoma",
    "Label": "Yes",
    "Description": "**BRAF mutations** help identify candidates for targeted therapies directed against BRAF and/or MEK in cutaneous melanoma. BRAF V600 activating mutations confer **sensitivity to BRAF and MEK inhibitors**, and patients with BRAF V600-mutant tumors benefit the most from their combination. Non-V600 mutations localized near codon 600 (BRAF L597 and K601) may also respond to BRAF/MEK inhibition. BRAF encodes a protein kinase involved in a signaling pathway that regulates cell growth and survival. References: [28572459] (https://pubmed.ncbi.nlm.nih.gov/28572459/), [21343559] (https://pubmed.ncbi.nlm.nih.gov/21343559/)."
  },
  {
    "Sub_group": 1,
    "Parameter_label": "BRAF fusion",
    "Method": "RNAseq",
    "Parameter": "BRAF_fusion_RNAseq",
    "Component_type": "boolean",
    "Group": "Molecular",
    "Source": "Calculation from NGS",
    "DB_ID": "BRAF_fusion_RNAseq.list",
    "Primary_id": "Cutaneous_Melanoma.BRAF_fusion_RNAseq.list",
    "Clinical_Data_Sheet": "Cutaneous_Melanoma",
    "Label": "Yes",
    "Description": "**BRAF fusion** defines a distinct molecular subtype of melanoma associated with response to non-specific RAF inhibitors and MEK inhibitors. BRAF fusion may present an independent driver event in cutaneous melanoma. Chimeric proteins encoded by BRAF fusion genes may constitutively activate the MAPK/ERK signaling conferring tumor **sensitivity to RAF/MEK inhibition**. BRAF encodes a protein kinase involved in the signaling regulating cell division and differentiation. References: [23890088] (https://pubmed.ncbi.nlm.nih.gov/23890088/), [24345920] (https://pubmed.ncbi.nlm.nih.gov/24345920/)."
  },
  {
    "Sub_group": 1,
    "Parameter_label": "NRAS mutations",
    "Method": "WES",
    "Parameter": "NRAS_mutations",
    "Component_type": "string",
    "Group": "Molecular",
    "Source": "Calculation from NGS",
    "DB_ID": "NRAS_mutations.list",
    "Primary_id": "Cutaneous_Melanoma.NRAS_mutations.list",
    "Clinical_Data_Sheet": "Cutaneous_Melanoma",
    "Label": "Yes",
    "Description": "**NRAS mutations** are associated with **aggressive behavior and inferior survival outcomes** in cutaneous melanoma. MEK inhibitors, such as binimetinib, may be considered in patients with NRAS-mutant metastatic or unresectable melanoma that has progressed after therapy with immune checkpoint inhibitors. Since monotherapy with MEK inhibitors has not shown significant efficacy, several therapeutic combinations are currently under study. NRAS encodes an enzyme that activates signaling promoting cell growth and proliferation. References: [28572459] (https://pubmed.ncbi.nlm.nih.gov/28572459/), [22180178] (https://pubmed.ncbi.nlm.nih.gov/22180178/), [29785260] (https://pubmed.ncbi.nlm.nih.gov/29785260/)."
  },
  {
    "Sub_group": 1,
    "Parameter_label": "KIT mutations",
    "Method": "WES",
    "Parameter": "KIT_mutation",
    "Component_type": "string",
    "Group": "Molecular",
    "Source": "Calculation from NGS",
    "DB_ID": "KIT_mutation.list",
    "Primary_id": "Cutaneous_Melanoma.KIT_mutation.list",
    "Clinical_Data_Sheet": "Cutaneous_Melanoma",
    "Label": "Yes",
    "Description": "**KIT mutations** define a unique melanoma subtype associated with older age, and acral, mucosal, or chronic sun-induced damage sites. Mutations in KIT exons 11 and 13 are associated with high **sensitivity to KIT inhibitors** (imatinib, nilotinib, sorafenib, sunitinib, etc.). Mutations in KIT exon 17 appear to have low or no sensitivity to KIT inhibitors. The protein encoded by KIT in essential for cell proliferation and survival and melanogenesis. References: [28572459] (https://pubmed.ncbi.nlm.nih.gov/28572459/)."
  },
  {
    "Sub_group": 1,
    "Parameter_label": "PTEN mutations",
    "Method": "WES",
    "Parameter": "PTEN_mutation",
    "Component_type": "string",
    "Group": "Molecular",
    "Source": "Calculation from NGS",
    "DB_ID": "PTEN_mutation.list",
    "Primary_id": "Cutaneous_Melanoma.PTEN_mutation.list",
    "Clinical_Data_Sheet": "Cutaneous_Melanoma",
    "Label": "Yes",
    "Description": "**PTEN mutations** are an emerging prognostic and predictive biomarker for melanoma. The loss-of-function PTEN mutations may be associated with **reduced survival** in melanoma patients. PTEN alterations might also be associated with **decreased sensitivity to BRAF inhibitors**. PTEN encodes a tumor suppressor enzyme involved in cell growth, survival, and proliferation. References: [28572459] (https://pubmed.ncbi.nlm.nih.gov/28572459/)."
  },
  {
    "Sub_group": 2,
    "Parameter_label": "NTRK fusion",
    "Method": "RNAseq",
    "Parameter": "NTRK_fusion_RNAseq",
    "Component_type": "boolean",
    "Group": "Molecular",
    "Source": "Calculation from NGS",
    "DB_ID": "NTRK_fusion_RNAseq.list",
    "Primary_id": "Cutaneous_Melanoma.NTRK_fusion_RNAseq.list",
    "Clinical_Data_Sheet": "Cutaneous_Melanoma",
    "Label": "Yes",
    "Description": "**NTRK fusions** are associated with response to targeted therapies in melanoma patients. NTRK rearrangements are associated with treatment **benefits from TRK inhibitors** larotrectinib and entrectinib. Fusions involving NTRK genes result in constitutively active TRK fusion proteins, which promote cell proliferation, survival, and invasion. References: [28572459] (https://pubmed.ncbi.nlm.nih.gov/28572459/)."
  },
  {
    "Sub_group": 2,
    "Parameter_label": "ALK fusion",
    "Method": "RNAseq",
    "Parameter": "ALK_rearrangement_RNAseq",
    "Component_type": "boolean",
    "Group": "Molecular",
    "Source": "Calculation from NGS",
    "DB_ID": "ALK_rearrangement_RNAseq.list",
    "Primary_id": "Cutaneous_Melanoma.ALK_rearrangement_RNAseq.list",
    "Clinical_Data_Sheet": "Cutaneous_Melanoma",
    "Label": "Yes",
    "Description": "**ALK rearrangement** is associated with tumor biology and treatment response in melanoma patients. ALK rearrangements define the spitzoid melanocytic phenotype. ALK rearrangement may predispose treatment **benefits from targeted therapies with ALK inhibitors**, such as crizotinib or entrectinib. ALK encodes a receptor tyrosine kinase that regulates apoptosis and cell proliferation. References: [28572459] (https://pubmed.ncbi.nlm.nih.gov/28572459/)."
  },
  {
    "Sub_group": 2,
    "Parameter_label": "ROS1 fusion",
    "Method": "RNAseq",
    "Parameter": "ROS1_rearrangement_RNAseq",
    "Component_type": "boolean",
    "Group": "Molecular",
    "Source": "Calculation from NGS",
    "DB_ID": "ROS1_rearrangement_RNAseq.list",
    "Primary_id": "Cutaneous_Melanoma.ROS1_rearrangement_RNAseq.list",
    "Clinical_Data_Sheet": "Cutaneous_Melanoma",
    "Label": "Yes",
    "Description": "**ROS1 fusions** are associated with tumor biology and treatment response in melanoma patients. ROS1 rearrangements are reported in **spitzoid melanomas**. ROS1 fusions may predispose treatment **benefits from targeted therapies with ROS1 inhibitors** (crizotinib, entrectinib, etc.). Signals transduced by ROS1 fusion proteins activate cellular pathways involved in cell growth and proliferation. References: [28572459] (https://pubmed.ncbi.nlm.nih.gov/28572459/)."
  },
  {
    "Sub_group": 2,
    "Parameter_label": "MAP2K1 (MEK1) mutations",
    "Method": "WES",
    "Parameter": "MAP2K1_mutations",
    "Component_type": "string",
    "Group": "Molecular",
    "Source": "Calculation from NGS",
    "DB_ID": "MAP2K1_mutations.list",
    "Primary_id": "Cutaneous_Melanoma.MAP2K1_mutations.list",
    "Clinical_Data_Sheet": "Cutaneous_Melanoma",
    "Label": "Yes",
    "Description": "**MAP2K1 (MEK1) mutations** are a potential biomarker for melanoma. Preclinical studies suggest that MAP2K1 mutations may confer **resistance to BRAF and MEK inhibitors**. The protein encoded by MAP2K1 is part of MAPK/ERK cascade and involved in cell proliferation, differentiation, and apoptosis. References: [19915144] (https://pubmed.ncbi.nlm.nih.gov/19915144/), [31980996] (https://pubmed.ncbi.nlm.nih.gov/31980996/)."
  },
  {
    "Sub_group": 3,
    "Parameter_label": "Tumor mutational burden",
    "Method": "WES",
    "Parameter": "tumor_mutational_burden",
    "Component_type": "boolean",
    "Group": "Molecular",
    "Source": "Calculation from NGS",
    "DB_ID": "tumor_mutational_burden.numeric",
    "Primary_id": "Cutaneous_Melanoma.tumor_mutational_burden.numeric",
    "Clinical_Data_Sheet": "Cutaneous_Melanoma",
    "Label": "Yes",
    "Description": "**Tumor mutational burden** (TMB) is a predictive biomarker for melanoma. High TMB (TMB-H) may correlate with **better response to immune checkpoint inhibitors** (both single-agent anti-PD-1 and combination therapies) and more favorable survival outcomes in melanoma patients. **Pembrolizumab is an approved tissue-agnostic agent** for the treatment of TMB-H solid tumors. TMB reflects the total number of coding somatic mutations in a tumor. TMB-H may translate into an increased number of neoantigens that can potentially be recognized as foreign and attacked by the host immune system. References: [26450194] (https://pubmed.ncbi.nlm.nih.gov/26450194/), [31406485] (https://pubmed.ncbi.nlm.nih.gov/31406485/)."
  },
  {
    "Sub_group": 3,
    "Parameter_label": "Microsatellite status",
    "Method": "WES",
    "Parameter": "MSI",
    "Component_type": "boolean",
    "Group": "Molecular",
    "Source": "Calculation from NGS",
    "DB_ID": "MSI.enumeration",
    "Primary_id": "Cutaneous_Melanoma.MSI.enumeration",
    "Clinical_Data_Sheet": "Cutaneous_Melanoma",
    "Label": "Yes",
    "Description": "**Microsatellite instability** (MSI) is a predictive biomarker for melanoma. The MSI-high status helps identify a subgroup of patients with metastatic melanoma that has progressed after previous treatment who are **likely to benefit from pembrolizumab** therapy. MSI is a phenotype characterized by hypermutability that results from defective DNA mismatch repair. References: [26028255] (https://pubmed.ncbi.nlm.nih.gov/26028255/), [28596308] (https://pubmed.ncbi.nlm.nih.gov/28596308/)."
  },
  {
    "Sub_group": 3,
    "Parameter_label": "Germline HRR gene alterations",
    "Method": "WES",
    "Parameter": "germline_HRR_genes_mutations",
    "Component_type": "boolean",
    "Group": "Molecular",
    "Source": "Calculation from NGS",
    "DB_ID": "germline_HRR_genes_mutations.list",
    "Primary_id": "Cutaneous_Melanoma.germline_HRR_genes_mutations.list",
    "Clinical_Data_Sheet": "Cutaneous_Melanoma",
    "Label": "Yes",
    "Description": "**Germline homologous recombination deficiency (HRD) mutations** refer to genetic alterations in the group of genes involved in the DNA repair and maintenance of genomic stability, such as ARID2, ARID1A, FANCA, ATM, BRCA1, BRCA2, and others. HRD gene mutations are an emerging predictive biomarker for melanoma. Through the phenomenon of synthetic lethality, HRD mutations may confer **sensitivity to PARP inhibitors and DNA-damaging chemotherapy**. References: [29478780] (https://pubmed.ncbi.nlm.nih.gov/29478780/), [28572459] (https://pubmed.ncbi.nlm.nih.gov/28572459/). References: [29478780] (https://pubmed.ncbi.nlm.nih.gov/29478780/), [28572459] (https://pubmed.ncbi.nlm.nih.gov/28572459/)."
  },
  {
    "Sub_group": 3,
    "Parameter_label": "Somatic HRR gene alterations",
    "Method": "WES",
    "Parameter": "somatic_HRR_genes_mutations",
    "Component_type": "boolean",
    "Group": "Molecular",
    "Source": "Calculation from NGS",
    "DB_ID": "somatic_HRR_genes_mutations.list",
    "Primary_id": "Cutaneous_Melanoma.somatic_HRR_genes_mutations.list",
    "Clinical_Data_Sheet": "Cutaneous_Melanoma",
    "Label": "Yes",
    "Description": "**Somatic homologous recombination deficiency (HRD) mutations** refer to sporadic genetic alterations in the group of genes involved in the DNA repair and maintenance of genomic stability, such as ARID2, ARID1A, FANCA, ATM, BRCA1, BRCA2, and others. HRD gene mutations are an emerging predictive biomarker for melanoma. Through the phenomenon of synthetic lethality, HRD mutations may confer **sensitivity to PARP inhibitors and DNA-damaging chemotherapy**. References: [29478780] (https://pubmed.ncbi.nlm.nih.gov/29478780/), [28572459] (https://pubmed.ncbi.nlm.nih.gov/28572459/). References: [29478780] (https://pubmed.ncbi.nlm.nih.gov/29478780/), [28572459] (https://pubmed.ncbi.nlm.nih.gov/28572459/)."
  }
]
