[
    {
        "Sub_group": "Clin-1",
        "Parameter_label": "Diagnosis",
        "Method": "Input",
        "Parameter": "diagnosis_for_display",
        "Component_type": "text",
        "Group": "Clinical",
        "DB_ID": "diagnosis_for_display.text",
        "Primary_id": "Neoplasm.diagnosis_for_display.text",
        "Clinical_Data_Sheet": "Complex_parameters_main",
        "Label": "Yes"
    },
    {
        "Sub_group": "Clin-1",
        "Parameter_label": "Histology",
        "Method": "Input",
        "Parameter": "histology",
        "Component_type": "text",
        "Group": "Clinical",
        "Source": "Input",
        "DB_ID": "histology.enumeration",
        "Primary_id": "Esophageal_Neoplasm.histology.enumeration",
        "Clinical_Data_Sheet": "Esophageal_Neoplasm",
        "Label": "Yes"
    },
    {
        "Sub_group": "Clin-1",
        "Parameter_label": "Stage",
        "Method": "Input",
        "Parameter": "stage",
        "Component_type": "text",
        "Group": "Clinical",
        "Source": "Calculation from input",
        "DB_ID": "stage.enumeration",
        "Primary_id": "Esophageal_Neoplasm.stage.enumeration",
        "Clinical_Data_Sheet": "Esophageal_Neoplasm",
        "Label": "Yes"
    },
    {
        "Sub_group": "Clin-1",
        "Parameter_label": "Treatment status",
        "Method": "Input",
        "Parameter": "treatment_modality",
        "Component_type": "text",
        "Group": "Clinical",
        "Source": "Input",
        "DB_ID": "treatment_modality.enumeration",
        "Primary_id": "Esophageal_Neoplasm.treatment_modality.enumeration",
        "Clinical_Data_Sheet": "Esophageal_Neoplasm",
        "Label": "Yes"
    },
    {
        "Sub_group": 1,
        "Parameter_label": "dMMR / MSI",
        "Group_label": "dMMR / MSI",
        "Parameter_group": "dmmr_msi",
        "Show_priority": 1,
        "Method_priority": "IHC,WES",
        "Method_for_grouping": "IHC",
        "Method": "IHC",
        "Parameter": "dMMR_ihc",
        "Component_type": "boolean",
        "Group": "Molecular",
        "Source": "Input",
        "DB_ID": "dMMR_ihc.enumeration",
        "Primary_id": "Esophageal_Neoplasm.dMMR_ihc.enumeration",
        "Clinical_Data_Sheet": "Esophageal_Neoplasm",
        "Label": "Yes"
    },
    {
        "Sub_group": 1,
        "Parameter_label": "dMMR / MSI",
        "Group_label": "dMMR / MSI",
        "Parameter_group": "dmmr_msi",
        "Show_priority": 1,
        "Method_priority": "IHC,WES",
        "Method_for_grouping": "WES",
        "Method": "WES",
        "Parameter": "MSI",
        "Component_type": "boolean",
        "Group": "Molecular",
        "Source": "Calculation from NGS",
        "DB_ID": "MSI.enumeration",
        "Primary_id": "Esophageal_Neoplasm.MSI.enumeration",
        "Clinical_Data_Sheet": "Esophageal_Neoplasm",
        "Label": "Yes",
        "Description": "**Microsatellite instability-high (MSI-H)** is a phenotype characterized by hypermutability resulting from defective DNA mismatch repair due to mutations in the MLH1, MSH2, MSH6, and PMS2 genes. MSI-H is associated with an up to 1000-fold increase in the tumor mutation rate. In general, MSI-H **predicts response to checkpoint blockade** regardless of the tumor origin due to a higher neoantigen load and immunogenicity of MSI-H tumors. According to research data, the MSI status can be associated with **favorable survival outcomes** in patients with gastroesophageal cancers. References: [31494725] (https://pubmed.ncbi.nlm.nih.gov/31494725/), [32388292] (https://pubmed.ncbi.nlm.nih.gov/32388292/)."
    },
    {
        "Sub_group": 1,
        "Parameter_label": "Tumor mutational burden",
        "Method": "WES",
        "Parameter": "tumor_mutational_burden",
        "Component_type": "boolean",
        "Group": "Molecular",
        "Source": "Calculation from NGS",
        "DB_ID": "tumor_mutational_burden.numeric",
        "Primary_id": "Esophageal_Adenocarcinoma.tumor_mutational_burden.numeric",
        "Clinical_Data_Sheet": "Esophageal_Neoplasm",
        "Label": "Yes",
        "Description": "**Tumor mutational burden (TMB)** is used as a predictive biomarker in solid neoplasms. TMB reflects the total number of coding somatic mutations in a tumor. Esophageal adenocarcinoma (EAC) generally demonstrates a high TMB (7 to 25 mutations per megabase). High TMB may predict **response to immune checkpoint inhibitors** in solid tumors. Pembrolizumab as monotherapy or in combination with chemotherapy can be considered in metastatic/recurrent tumors with high TMB. High TMB results in an elevated neoantigen load that can be recognized by cytotoxic lymphocytes thus enhancing response to immunotherapy. References: [28748917] (https://pubmed.ncbi.nlm.nih.gov/28748917/)."
    },
    {
        "Sub_group": 1,
        "Parameter_label": "PD-L1 expression",
        "Group_label": "PD-L1 expression",
        "Parameter_group": "pd-l1_expression",
        "Show_priority": 1,
        "Method_priority": "IHC,RNAseq",
        "Method_for_grouping": "IHC ",
        "Method": "IHC",
        "Parameter": "PDL1_CPS",
        "Component_type": "boolean",
        "Group": "Molecular",
        "Source": "Input",
        "DB_ID": "PDL1_CPS.numeric",
        "Primary_id": "Esophageal_Neoplasm.PDL1_CPS.numeric",
        "Clinical_Data_Sheet": "Esophageal_Neoplasm",
        "Label": "Yes"
    },
    {
        "Sub_group": 1,
        "Parameter_label": "PD-L1 expression",
        "Group_label": "PD-L1 expression",
        "Parameter_group": "pd-l1_expression",
        "Show_priority": 1,
        "Method_priority": "IHC,RNAseq",
        "Method_for_grouping": "RNAseq",
        "Method": "RNAseq",
        "Parameter": "PDL1_expression_RNAseq",
        "Component_type": "expression",
        "Group": "Molecular",
        "Source": "Calculation from NGS",
        "DB_ID": "PDL1_expression_RNAseq.numeric",
        "Primary_id": "Esophageal_Neoplasm.PDL1_expression_RNAseq.numeric",
        "Clinical_Data_Sheet": "Esophageal_Neoplasm",
        "Label": "Yes",
        "Description": "**PD-L1 expression** is used as a predictive biomarker in various types of malignancies including esophageal cancer. PD-L1 expression measured by IHC identifies those patients who are likely to **benefit from pembrolizumab or nivolumab** used as part of combination therapy. Data on PD-L1 expression determined by other methods require validation in future studies, and the results should be interpreted with caution. PD-L1 is an immune checkpoint that inhibits T cell-mediated antitumor responses. References: [33026938] (https://pubmed.ncbi.nlm.nih.gov/33026938/), [33167736] (https://pubmed.ncbi.nlm.nih.gov/33167736/)."
    },
    {
        "Sub_group": 1,
        "Parameter_label": "NTRK fusion ",
        "Group_label": "NTRK fusion ",
        "Parameter_group": "NTRK_fusion",
        "Show_priority": 2,
        "Method_priority": "IHC,RNAseq",
        "Method_for_grouping": "IHC ",
        "Method": "IHC",
        "Parameter": "NTRK_fusion_IHC",
        "Component_type": "boolean",
        "Group": "Molecular",
        "Source": "Input",
        "DB_ID": "NTRK_fusion_IHC.enumeration",
        "Primary_id": "Esophageal_Neoplasm.NTRK_fusion_IHC.enumeration",
        "Clinical_Data_Sheet": "Esophageal_Neoplasm",
        "Label": "Yes"
    },
    {
        "Sub_group": 1,
        "Parameter_label": "NTRK fusion ",
        "Group_label": "NTRK fusion ",
        "Parameter_group": "NTRK_fusion",
        "Show_priority": 1,
        "Method_priority": "IHC,RNAseq",
        "Method_for_grouping": "RNAseq",
        "Method": "RNAseq",
        "Parameter": "NTRK_fusion_RNAseq",
        "Component_type": "boolean",
        "Group": "Molecular",
        "Source": "Calculation from NGS",
        "DB_ID": "NTRK_fusion_RNAseq.list",
        "Primary_id": "Esophageal_Neoplasm.NTRK_fusion_RNAseq.list",
        "Clinical_Data_Sheet": "Esophageal_Neoplasm",
        "Label": "Yes",
        "Description": "**NTRK fusions** help identify a group of patients with esophageal cancer (EC) who may benefit from specific targeted therapy. NTRK fusions are extremely rare in EC and may be associated with an **aggressive phenotype**. Approved **NTRK inhibitors** (larotrectinib and entrectinib) are considered a treatment option as second-line or subsequent therapy in metastatic or recurrent tumors with NTRK gene fusion if no resistance mutations have been found and there are no alternative treatments. NTRK fusion genes encode chimeric proteins that activate signaling involved in cell survival and proliferation. References: [29466156] (https://pubmed.ncbi.nlm.nih.gov/29466156/), [31575452] (https://pubmed.ncbi.nlm.nih.gov/31575452/)."
    },
    {
        "Sub_group": 1,
        "Parameter_label": "TP53 mutations",
        "Method": "NGS",
        "Parameter": "TP53_mutation",
        "Component_type": "string",
        "Group": "Molecular",
        "Source": "Calculation from NGS",
        "DB_ID": "TP53_mutation.list",
        "Primary_id": "Esophageal_Adenocarcinoma.TP53_mutation.list",
        "Clinical_Data_Sheet": "Esophageal_Neoplasm",
        "Label": "Yes",
        "Description": "**TP53 alterations** are associated with tumor biology and prognosis in esophageal adenocarcinoma (EAC). Research data show that patients with TP53-mutant EAC may have **shorter survival** regardless of the tumor stage. TP53 is one of the most frequently altered genes in EAC. TP53 encodes a major tumor suppressor protein that participates in DNA repair, apoptosis, cell cycle control, and other essential cellular processes. TP53 alterations commonly lead to genomic instability, aneuploidy and an elevated driver mutation burden. References: [28748917] (https://pubmed.ncbi.nlm.nih.gov/28748917/), [26733670] (https://pubmed.ncbi.nlm.nih.gov/26733670/)."
    },
    {
        "Sub_group": 2,
        "Parameter_label": "ERBB family genes alterations",
        "Method": "WES",
        "Parameter": "ERBB_family_genes_alterations",
        "Component_type": "boolean",
        "Group": "Molecular",
        "Source": "Calculation from NGS",
        "DB_ID": "ERBB_family_genes_alterations.list",
        "Primary_id": "Esophageal_Adenocarcinoma.ERBB_family_genes_alterations.list",
        "Clinical_Data_Sheet": "Esophageal_Neoplasm",
        "Label": "Yes",
        "Description": "**Alterations in the ERBB family genes**, namely EGFR/ERBB1, ERBB2/HER2, ERBB3, and ERBB4, are associated with prognosis and treatment outcomes in esophageal cancer (EC). ERBB alterations have therapeutic implications, with some of them being **actionable targets** themselves and some correlating with **drug resistance** in cancer patients. EGFR amplification may be associated with an inferior prognosis in EC patients. The ERBB family includes cell-surface receptors, which, when activated by ligands, induce multiple signaling cascades including major regulators of cell growth and proliferation. References: [29371993] (https://pubmed.ncbi.nlm.nih.gov/29371993/), [28748917] (https://pubmed.ncbi.nlm.nih.gov/28748917/)."
    },
    {
        "Sub_group": 2,
        "Parameter_label": "EGFR expression",
        "Method": "RNAseq",
        "Parameter": "EGFR_expression_RNAseq",
        "Component_type": "expression",
        "Group": "Molecular",
        "Source": "Calculation from NGS",
        "DB_ID": "EGFR_expression_RNAseq.numeric",
        "Primary_id": "Esophageal_Adenocarcinoma.EGFR_expression_RNAseq.numeric",
        "Clinical_Data_Sheet": "Esophageal_Neoplasm",
        "Label": "Yes",
        "Description": "**EGFR expression** is associated with tumor biology and treatment outcomes in esophageal cancer (EC). EGFR overexpression measured by IHC may correlate with higher stages, poorer differentiation, and increased vascular invasion of EC, therefore, an **inferior prognosis**. Research data suggest that the addition of **cetuximab**, an EGFR-targeted agent, to chemotherapy can improve clinical outcomes in patients with metastatic EC. EGFR is a membrane receptor that transduces extracellular growth factor signaling, and its alterations may lead to the constitutive activation of mitogenic cascades in the cell. References: [33364187] (https://pubmed.ncbi.nlm.nih.gov/33364187/), [30477458] (https://pubmed.ncbi.nlm.nih.gov/30477458/)."
    },
    {
        "Sub_group": 2,
        "Parameter_label": "HER2 (ERBB2) expression",
        "Group_label": "HER2 (ERBB2) expression",
        "Parameter_group": "her2_expression",
        "Show_priority": 1,
        "Method_priority": "IHC,RNAseq",
        "Method_for_grouping": "IHC",
        "Method": "IHC",
        "Parameter": "ERBB2_expression",
        "Component_type": "boolean",
        "Group": "Molecular",
        "Source": "Input",
        "DB_ID": "ERBB2_expression.numeric",
        "Primary_id": "Esophageal_Neoplasm.ERBB2_expression.numeric",
        "Clinical_Data_Sheet": "Esophageal_Neoplasm",
        "Label": "Yes",
        "Description": "**ERBB2 (or HER2) expression** is associated with treatment response in patients with esophageal adenocarcinoma (EAC). Amplification or overexpression of ERBB2 helps identify those EAC patients who are likely to **benefit from anti-HER2 therapy**. Trastuzumab is a recommended therapeutic option in HER2-overexpressing EAC. Though HER2 expression/amplification is most commonly assessed by IHC or FISH, these methods may show inconsistent and conflicting results. ERBB2 encodes a receptor tyrosine kinase that plays a role in the cell cycle and differentiation. References: [27932891] (https://pubmed.ncbi.nlm.nih.gov/27932891/), [20728210] (https://pubmed.ncbi.nlm.nih.gov/20728210/)."
    },
    {
        "Sub_group": 2,
        "Parameter_label": "HER2 (ERBB2) expression",
        "Group_label": "HER2 (ERBB2) expression",
        "Parameter_group": "her2_expression",
        "Show_priority": 1,
        "Method_priority": "IHC,RNAseq",
        "Method_for_grouping": "RNAseq",
        "Method": "RNAseq",
        "Parameter": "ERBB2_expression_RNAseq",
        "Component_type": "expression",
        "Group": "Molecular",
        "Source": "Calculation from NGS",
        "DB_ID": "ERBB2_expression_RNAseq.numeric",
        "Primary_id": "Esophageal_Adenocarcinoma.ERBB2_expression_RNAseq.numeric",
        "Clinical_Data_Sheet": "Esophageal_Neoplasm",
        "Label": "Yes"
    },
    {
        "Sub_group": 2,
        "Parameter_label": "HER2 amplification",
        "Method": "WES",
        "Parameter": "her2_amplification",
        "Component_type": "string",
        "Group": "Molecular",
        "Source": "Calculation from NGS",
        "DB_ID": "her2_amplification.bool",
        "Primary_id": "Esophageal_Adenocarcinoma.her2_amplification.bool",
        "Clinical_Data_Sheet": "Esophageal_Neoplasm",
        "Label": "Yes",
        "Description": "**ERBB2 (or HER2) amplification/overexpression** helps identify those patients with esophageal cancer (EC) who are **likely to benefit from HER2-targeted therapies and may also be a poor prognostic factor**. Although HER2 amplification/overexpression is usually determined by IHC or FISH, these methods may show conflicting or inconsistent results. NGS may be considered as a more powerful tool in assessing HER2 amplification. ERBB2 encodes a receptor tyrosine kinase regulating the cell cycle and apoptosis. References: [27932891] (https://pubmed.ncbi.nlm.nih.gov/27932891/), [20728210] (https://pubmed.ncbi.nlm.nih.gov/20728210/)."
    },
    {
        "Sub_group": 2,
        "Parameter_label": "ERBB3 expression",
        "Method": "RNAseq",
        "Parameter": "ERBB3_expression_RNAseq",
        "Component_type": "expression",
        "Group": "Molecular",
        "Source": "Calculation from NGS",
        "DB_ID": "ERBB3_expression_RNAseq.numeric",
        "Primary_id": "Esophageal_Adenocarcinoma.ERBB3_expression_RNAseq.numeric",
        "Clinical_Data_Sheet": "Esophageal_Neoplasm",
        "Label": "Yes",
        "Description": "**ERBB3, or HER3, expression** is a biomarker associated with prognosis and treatment response in esophageal cancer (EC). High HER3 expression measured by IHC has been repeatedly reported in correlation with **poor survival** in EC patients. Research data have shown that upregulation of HER3 signaling may be associated with tumor **resistance to targeted therapies** including anti-EGFR and anti-HER2 agents. The protein encoded by ERBB3 is not an active kinase domain but its ability to form heterodimers with other members of the ERBB family results in potent downstream growth factor signaling. References: [24651011] (https://pubmed.ncbi.nlm.nih.gov/24651011/), [30057690] (https://pubmed.ncbi.nlm.nih.gov/30057690/)."
    },
    {
        "Sub_group": 3,
        "Parameter_label": "PI3K/AKT/mTOR mutations",
        "Method": "NGS",
        "Parameter": "PI3K_AKT_mTOR_signaling_mutations",
        "Component_type": "string",
        "Group": "Molecular",
        "Source": "Calculation from NGS",
        "DB_ID": "PI3K_AKT_mTOR_signaling_mutations.list",
        "Primary_id": "Esophageal_Adenocarcinoma.PI3K_AKT_mTOR_signaling_mutations.list",
        "Clinical_Data_Sheet": "Esophageal_Neoplasm",
        "Label": "Yes",
        "Description": "**Alterations in genes involved in the PI3K/AKT/mTOR signaling**, namely AKT1, AKT3, PTEN, PIK3CA, PIK3CB, TSC1, TSC2, MTOR, are associated with treatment outcomes in esophageal cancer (EC). Research data have shown that gene mutations in the PI3K pathway may correlate with **resistance to targeted agents** directed against ERBB2 and EGFR in ERBB2-amplified EC. The PI3K/mTOR pathway is a major regulator of cell growth, proliferation, and survival. This pathway is dysregulated in up to 5% of patients with esophageal adenocarcinoma. References: [30463996] (https://pubmed.ncbi.nlm.nih.gov/30463996/), [33028804] (https://pubmed.ncbi.nlm.nih.gov/33028804/)."
    },
    {
        "Sub_group": 3,
        "Parameter_label": "RAS/RAF/MEK/ERK pathway mutations",
        "Method": "NGS",
        "Parameter": "RAS_RAF_MEK_ERK_pathway_mutations",
        "Component_type": "string",
        "Group": "Molecular",
        "Source": "Calculation from NGS",
        "DB_ID": "RAS_RAF_MEK_ERK_pathway_mutations.list",
        "Primary_id": "Esophageal_Adenocarcinoma.RAS_RAF_MEK_ERK_pathway_mutations.list",
        "Clinical_Data_Sheet": "Esophageal_Neoplasm",
        "Label": "Yes",
        "Description": "**Alterations in genes involved in the RAS/RAF/MEK/ERK signaling**, namely KRAS, NRAS, HRAS, BRAF, RAF1, ARAF, MAP2K1, MAP2K2, MAPK1, MAPK3, are associated with prognosis and treatment response in esophageal adenocarcinoma (EAC). Mutations in genes encoding Ras and Raf proteins may confer tumor **resistance to anti-EGFR therapy**. The presence of KRAS amplification may correlate with **poor prognosis** in EAC. The Ras/ERK signaling cascade transmits signals from growth factor receptors regulating gene expression and preventing apoptosis. References: [33028804] (https://pubmed.ncbi.nlm.nih.gov/33028804/), [31865178] (https://pubmed.ncbi.nlm.nih.gov/31865178/)."
    },
    {
        "Sub_group": 3,
        "Parameter_label": "MET amplification",
        "Method": "WES",
        "Parameter": "MET_amplification",
        "Component_type": "string",
        "Group": "Molecular",
        "Source": "Calculation from NGS",
        "DB_ID": "MET_amplification.bool",
        "Primary_id": "Esophageal_Adenocarcinoma.MET_amplification.bool",
        "Clinical_Data_Sheet": "Esophageal_Neoplasm",
        "Label": "Yes",
        "Description": "**MET amplification** is associated with prognosis and treatment response in esophageal cancer (EC). MET amplification can underlie tumor **resistance to ant-HER2 therapy**. According to research data, a specific MET inhibitor can help overcome this treatment resistance and has shown clinical efficacy in EC patients. MET amplification and c-MET overexpression may correlate with unfavorable clinical and biological features of EC and be associated with **poor prognosis**. MET encodes a tyrosine kinase receptor that plays a role in cell proliferation and survival. References: [30463996] (https://pubmed.ncbi.nlm.nih.gov/30463996/), [33028804] (https://pubmed.ncbi.nlm.nih.gov/33028804/)."
    },
    {
        "Sub_group": 3,
        "Parameter_label": "VEGFA expression",
        "Method": "RNAseq",
        "Parameter": "VEGFA_expression_RNAseq",
        "Component_type": "expression",
        "Group": "Molecular",
        "Source": "Calculation from NGS",
        "DB_ID": "VEGFA_expression_RNAseq.numeric",
        "Primary_id": "Esophageal_Adenocarcinoma.VEGFA_expression_RNAseq.numeric",
        "Clinical_Data_Sheet": "Esophageal_Neoplasm",
        "Label": "Yes",
        "Description": "**VEGFA expression** can be associated with disease outcomes in esophageal adenocarcinoma (EAC). VEGF expression measured by IHC can be associated with **tumor progression and prognosis** in EAC. Based on clinical data, **ramucirumab**, an agent targeting VEGFR2, is recommended as monotherapy or in combination with chemotherapy as a second or later-line option in advanced or metastatic EAC. No available research data have shown the predictive role of VEGF expression for anti-VEGFR therapy. The VEGF family includes growth factors that promote angiogenesis and cell migration and inhibit apoptosis. References: [25240821] (https://pubmed.ncbi.nlm.nih.gov/25240821/), [28572459] (https://pubmed.ncbi.nlm.nih.gov/28572459/)."
    },
    {
        "Sub_group": 3,
        "Parameter_label": "FGFR2 amplification",
        "Method": "WES",
        "Parameter": "FGFR2_amplification",
        "Component_type": "string",
        "Group": "Molecular",
        "Source": "Calculation from NGS",
        "DB_ID": "FGFR2_amplification.bool",
        "Primary_id": "Esophageal_Adenocarcinoma.FGFR2_amplification.bool",
        "Clinical_Data_Sheet": "Esophageal_Neoplasm",
        "Label": "Yes",
        "Description": "**FGFR2 amplification** is an emerging prognostic biomarker in esophageal adenocarcinoma (EAC). FGFR2 amplification is an important molecular abnormality in EAC that may lead to FGRF2b overexpression. Both FGFR2 amplification and FGFR2b overexpression were reported in association with **poor prognosis** in EAC patients. A specific **anti-FGFR2 antibody** is currently under clinical investigation in patients with gastroesophageal junction adenocarcinoma. FGFR2 encodes a receptor involved in the regulation of cell growth and proliferation. References: [31094225] (https://pubmed.ncbi.nlm.nih.gov/31094225/), [33028804] (https://pubmed.ncbi.nlm.nih.gov/33028804/)."
    }
]