[
  {
    "Sub_group": "Clin-1",
    "Parameter_label": "Diagnosis",
    "Parameter": "diagnosis_for_display",
    "Component_type": "text",
    "Group": "Clinical",
    "DB_ID": "diagnosis_for_display.text",
    "Primary_id": "Neoplasm.diagnosis_for_display.text",
    "Clinical_Data_Sheet": "Complex_parameters_main",
    "Label": "No"
  },
  {
    "Sub_group": "Clin-1",
    "Parameter_label": "Patient sex, age",
    "Parameter": "sex_age",
    "Component_type": "text",
    "Group": "Clinical",
    "DB_ID": "sex_age.list",
    "Primary_id": "Neoplasm.sex_age.list",
    "Clinical_Data_Sheet": "Complex_parameters_main",
    "Label": "No"
  },
  {
    "Sub_group": "Clin-1",
    "Parameter_label": "AJCC stage",
    "Parameter": "stage",
    "Component_type": "text",
    "Group": "Clinical",
    "DB_ID": "stage.enumeration",
    "Primary_id": "Mucosal_Melanoma.Stage_AJCC.enumeration",
    "Clinical_Data_Sheet": "Mucosal_Melanoma",
    "Label": "Yes"
  },
  {
    "Sub_group": "Clin-1",
    "Parameter_label": "ECOG",
    "Parameter": "ecog",
    "Component_type": "text",
    "Group": "Clinical",
    "DB_ID": "ecog.enumeration",
    "Primary_id": "Mucosal_Melanoma.ecog.enumeration",
    "Clinical_Data_Sheet": "Mucosal_Melanoma",
    "Label": "Yes"
  },
  {
    "Sub_group": "Clin-1",
    "Parameter_label": "Treatment status",
    "Parameter": "treatment_modality",
    "Component_type": "text",
    "Group": "Clinical",
    "DB_ID": "treatment_modality.enumeration",
    "Primary_id": "Mucosal_Melanoma.treatment_modality.enumeration",
    "Clinical_Data_Sheet": "Mucosal_Melanoma",
    "Label": "Yes"
  },
  {
    "Sub_group": "Clin-1",
    "Parameter_label": "Metastatic sites",
    "Parameter": "metastasis_sites",
    "Component_type": "text",
    "Group": "Clinical",
    "DB_ID": "metastasis_sites.enumeration",
    "Primary_id": "Mucosal_Melanoma.metastasis_sites.enumeration",
    "Clinical_Data_Sheet": "Mucosal_Melanoma",
    "Label": "Yes"
  },
  {
    "Sub_group": 1,
    "Parameter_label": "KIT mutations",
    "Method": "WES",
    "Parameter": "KIT_mutation",
    "Component_type": "string",
    "Group": "Molecular",
    "Source": "Calculation from NGS",
    "DB_ID": "KIT_mutation.list",
    "Primary_id": "Mucosal_Melanoma.KIT_mutation.list",
    "Clinical_Data_Sheet": "Mucosal_Melanoma",
    "Label": "Yes",
    "Description": "**KIT mutations** are an important therapeutic target in melanoma of mucosal origin. Hotspot mutations in the KIT gene vary in their **sensitivity to KIT inhibitors**, with mutations in exons 11 and 13 being associated with high sensitivity and mutations in exon 17 appearing to have low or no sensitivity to the targeted therapies. The protein encoded by KIT is essential for cell proliferation and survival and melanogenesis. KIT mutations are found in 10% to 15% of mucosal melanomas. References: [21642685] (https://pubmed.ncbi.nlm.nih.gov/21642685/), [16908931] (https://pubmed.ncbi.nlm.nih.gov/16908931/)."
  },
  {
    "Sub_group": 1,
    "Parameter_label": "BRAF mutations",
    "Method": "WES",
    "Parameter": "braf_mutation",
    "Component_type": "string",
    "Group": "Molecular",
    "Source": "Calculation from NGS",
    "DB_ID": "braf_mutation.list",
    "Primary_id": "Mucosal_Melanoma.braf_mutation.list",
    "Clinical_Data_Sheet": "Mucosal_Melanoma",
    "Label": "Yes",
    "Description": "**BRAF mutations** help identify candidates for targeted therapies directed against BRAF and/or MEK in melanoma of mucosal origin. BRAF V600 activating mutations confer **sensitivity to BRAF and MEK inhibitors**, and patients with V600-mutant tumors benefit the most from their combination. Non-V600 mutations localized near codon 600 (L597 and K601) may also respond to BRAF/MEK inhibition. BRAF encodes a protein kinase involved in a signaling pathway regulating cell growth and survival. Though alterations in the MAPK pathway occur frequently in mucosal melanoma, activating BRAF V600 mutations are rare. References: [31320640] (https://pubmed.ncbi.nlm.nih.gov/31320640/), [30459941] (https://pubmed.ncbi.nlm.nih.gov/30459941/)."
  },
  {
    "Sub_group": 1,
    "Parameter_label": "NRAS mutations",
    "Method": "WES",
    "Parameter": "NRAS_mutations",
    "Component_type": "string",
    "Group": "Molecular",
    "Source": "Calculation from NGS",
    "DB_ID": "NRAS_mutations.list",
    "Primary_id": "Mucosal_Melanoma.NRAS_mutations.list",
    "Clinical_Data_Sheet": "Mucosal_Melanoma",
    "Label": "Yes",
    "Description": "**NRAS mutations** are commonly associated with recurrent and metastatic mucosal melanoma. NRAS mutations are considered driver events resulting in constitutive activation of the MAPK signaling. Several therapeutic combinations with **MEK inhibitors**, which act downstream of NRAS, are currently under study. NRAS encodes an enzyme that activates signaling that promotes cell growth and proliferation. Alterations in the MAPK pathway, including NRAS mutations, occur frequently in mucosal melanoma. References: [31320640] (https://pubmed.ncbi.nlm.nih.gov/31320640/)."
  },
  {
    "Sub_group": 1,
    "Parameter_label": "TERT mutations",
    "Method": "WES",
    "Parameter": "TERT_mutations",
    "Component_type": "string",
    "Group": "Molecular",
    "Source": "Calculation from NGS",
    "DB_ID": "TERT_mutations.list",
    "Primary_id": "Mucosal_Melanoma.TERT_mutations.list",
    "Clinical_Data_Sheet": "Mucosal_Melanoma",
    "Label": "Yes",
    "Description": "**TERT aberrations**, such as amplification or activating mutations, are considered a driver event in mucosal melanoma. TERT alterations help stabilize telomeres through numerous replication cycles melanoma cells undergo. Mutations in TERT and ATRX, another gene involved in the regulation of telomere length, were seen to be mutually exclusive. TERT encodes a catalytic subunit of telomerase, an enzyme that adds telomeric repeats to the ends of chromosomes. References: [31320640] (https://pubmed.ncbi.nlm.nih.gov/31320640/)."
  },
  {
    "Sub_group": 1,
    "Parameter_label": "NF1 mutations",
    "Method": "WES",
    "Parameter": "NF1_mutations",
    "Component_type": "string",
    "Group": "Molecular",
    "Source": "Calculation from NGS",
    "DB_ID": "NF1_mutations.list",
    "Primary_id": "Mucosal_Melanoma.NF1_mutations.list",
    "Clinical_Data_Sheet": "Mucosal_Melanoma",
    "Label": "Yes",
    "Description": "**NF1 mutations** are associated with the biology of mucosal melanoma. NF1 alterations, such as inactivating mutations or deletions, are considered driver events in melanoma. These alterations may lead to the loss of inhibitory signaling regulating the MAPK pathway, which results in its constitutive activation. NF1 mutations may confer resistance to MEK/MAPK inhibitors. NF1 encodes a tumor suppressor protein that inhibits Ras-mediated cell growth. References: [31320640] (https://pubmed.ncbi.nlm.nih.gov/31320640/)."
  },
  {
    "Sub_group": 2,
    "Parameter_label": "GNAQ mutations",
    "Method": "WES",
    "Parameter": "GNAQ_mutations",
    "Component_type": "string",
    "Group": "Molecular",
    "Source": "Calculation from NGS",
    "DB_ID": "GNAQ_mutations.list",
    "Primary_id": "Mucosal_Melanoma.GNAQ_mutations.list",
    "Clinical_Data_Sheet": "Mucosal_Melanoma",
    "Label": "Yes",
    "Description": "**GNAQ mutations** are a potential **poor prognostic factor** in mucosal melanoma. Research data suggest that patients with GNAQ-mutant tumors may have shorter survival. GNAQ mutations may result in constitutive activation of the MAPK signaling and present a **potential therapeutic target** in melanoma patients. The protein encoded by GNAQ forms part of GTP/GDP switches enabling signal transduction through numerous cellular pathways, including those regulating cell proliferation, differentiation, and motility. GNAQ mutations occur frequently in mucosal melanoma. References: [27498141] (https://pubmed.ncbi.nlm.nih.gov/27498141/)."
  },
  {
    "Sub_group": 2,
    "Parameter_label": "GNA11 mutations",
    "Method": "WES",
    "Parameter": "GNA11_mutation",
    "Component_type": "string",
    "Group": "Molecular",
    "Source": "Calculation from NGS",
    "DB_ID": "GNA11_mutation.list",
    "Primary_id": "Mucosal_Melanoma.GNA11_mutation.list",
    "Clinical_Data_Sheet": "Mucosal_Melanoma",
    "Label": "Yes",
    "Description": "**GNA11 mutations** are a potential **poor prognostic factor** in mucosal melanoma. Research data suggest that patients with GNA11-mutant tumors may have shorter survival. GNA11 mutations may result in constitutive activation of the MAPK signaling and present a **potential therapeutic target** in melanoma patients. The protein encoded by GNA11 forms part of GTP/GDP switches enabling signal transduction through numerous cellular pathways, including those regulating cell proliferation, differentiation, and motility. GNA11 mutations occur frequently in mucosal melanoma. References: [27498141] (https://pubmed.ncbi.nlm.nih.gov/27498141/)."
  },
  {
    "Sub_group": 2,
    "Parameter_label": "SF3B1 mutations",
    "Method": "WES",
    "Parameter": "SF3B1_mutation_WES",
    "Component_type": "string",
    "Group": "Molecular",
    "Source": "Calculation from NGS",
    "DB_ID": "SF3B1_mutation_WES.list",
    "Primary_id": "Mucosal_Melanoma.SF3B1_mutation_WES.list",
    "Clinical_Data_Sheet": "Mucosal_Melanoma",
    "Label": "Yes",
    "Description": "**SF3B1 mutations** are commonly associated with **vulvovaginal and anorectal** mucosal melanoma. SF3B1 mutations are considered driver events resulting in constitutive activation of the MAPK signaling. The protein encoded by the SF3B1 gene plays an essential role in RNA splicing. SF3B1 mutations are found predominantly in melanoma patients of European ancestry. References: [31320640] (https://pubmed.ncbi.nlm.nih.gov/31320640/), [30459941] (https://pubmed.ncbi.nlm.nih.gov/30459941/)."
  },
  {
    "Sub_group": 2,
    "Parameter_label": "TP53 mutations",
    "Method": "WES",
    "Parameter": "TP53_mutation",
    "Component_type": "string",
    "Group": "Molecular",
    "Source": "Calculation from NGS",
    "DB_ID": "TP53_mutation.list",
    "Primary_id": "Mucosal_Melanoma.TP53_mutation.list",
    "Clinical_Data_Sheet": "Mucosal_Melanoma",
    "Label": "Yes",
    "Description": "**TP53 mutations** are recurrent genetic alterations in mucosal melanoma. TP53 is considered a driver gene in the pathogenesis of mucosal melanoma. Research data suggest that TP53 mutations may be associated with a subset of mucosal melanomas exposed to ultraviolet radiation. TP53 encodes a major tumor suppressor protein that participates in DNA repair, apoptosis, cell cycle control, and other essential cellular processes. References: [31320640] (https://pubmed.ncbi.nlm.nih.gov/31320640/), [29236030] (https://pubmed.ncbi.nlm.nih.gov/29236030/)."
  },
  {
    "Sub_group": 2,
    "Parameter_label": "SPRED1 mutations",
    "Method": "WES",
    "Parameter": "SPRED1_mutation",
    "Component_type": "string",
    "Group": "Molecular",
    "Source": "Calculation from NGS",
    "DB_ID": "SPRED1_mutation.list",
    "Primary_id": "Mucosal_Melanoma.SPRED1_mutation.list",
    "Clinical_Data_Sheet": "Mucosal_Melanoma",
    "Label": "Yes",
    "Description": "**SPRED1 mutations** are associated with the biology of mucosal melanoma. SPRED1 alterations are considered driver events in melanoma. They may lead to the loss of inhibitory signaling regulating the MAPK pathway, which results in its constitutive activation. SPRED1 mutations potentially **sensitize tumors to MAPK inhibitors**. SPRED1 encodes a protein that binds to Ras proteins thus switching off their downstream signaling. References: [https://doi.org/10.1158/2159-8290] (https://doi.org/10.1158/2159-8290), [https://doi.org/10.1038/s41467-019-11107-x] (https://doi.org/10.1038/s41467-019-11107-x)."
  },
  {
    "Sub_group": 2,
    "Parameter_label": "ATRX mutations",
    "Method": "WES",
    "Parameter": "ATRX_mutations_WES",
    "Component_type": "string",
    "Group": "Molecular",
    "Source": "Calculation from NGS",
    "DB_ID": "ATRX_mutations_WES.list",
    "Primary_id": "Mucosal_Melanoma.ATRX_mutations_WES.list",
    "Clinical_Data_Sheet": "Mucosal_Melanoma",
    "Label": "Yes",
    "Description": "**ATRX mutations** are considered a driver event in mucosal melanoma. Inactivating ATRX mutations promote alternative lengthening of telomeres and cell immortalization. Mutations in ATRX and TERT, another gene involved in the regulation of telomere length, were seen to be mutually exclusive. ATRX encodes a protein involved in chromatin remodeling, regulation of gene transcription, and telomere maintenance. References: [31320640] (https://pubmed.ncbi.nlm.nih.gov/31320640/)."
  },
  {
    "Sub_group": 3,
    "Parameter_label": "Tumor mutational burden",
    "Method": "WES",
    "Parameter": "tumor_mutational_burden",
    "Component_type": "boolean",
    "Group": "Molecular",
    "Source": "Calculation from NGS",
    "DB_ID": "tumor_mutational_burden.numeric",
    "Primary_id": "Mucosal_Melanoma.tumor_mutational_burden.numeric",
    "Clinical_Data_Sheet": "Mucosal_Melanoma",
    "Label": "Yes",
    "Description": "**Tumor mutational burden** (TMB) reflects the total number of nonsynonymous somatic mutations in a tumor. **Pembrolizumab is an approved tissue-agnostic agent** for solid tumors with high TMB (TMB-H) defined as 10 or more mutations per megabase. However, research data suggest that TMB probably does not directly correlate with response to checkpoint blockade in mucosal melanoma. TMB-H is associated with dysfunctional DNA repair and may result in an elevated load of neoantigens that can be recognized by cytotoxic lymphocytes and potentially enhance response to immunotherapy. References: [28737763] (https://pubmed.ncbi.nlm.nih.gov/28737763/)."
  },
  {
    "Sub_group": 3,
    "Parameter_label": "C-KIT expression",
    "Method": "RNAseq",
    "Parameter": "ckit_expression",
    "Component_type": "expression",
    "Group": "Molecular",
    "Source": "Calculation from NGS",
    "DB_ID": "ckit_expression.numeric",
    "Primary_id": "Mucosal_Melanoma.ckit_expression.numeric",
    "Clinical_Data_Sheet": "Mucosal_Melanoma",
    "Label": "Yes",
    "Description": "**C-Kit expression** is a useful screening parameter in mucosal melanoma. As c-Kit expression (shown by IHC) may correlate with the presence of **KIT mutations**, it can be used as a screening tool to identify candidates for further testing for hotspot mutations in KIT, which in turn help select patients likely to be **sensitive to KIT inhibitors**. The c-Kit protein encoded by the KIT gene is essential for cell proliferation and survival and melanogenesis. Based on IHC data, c-Kit is often expressed in mucosal melanoma. References: [19018266] (https://pubmed.ncbi.nlm.nih.gov/19018266/)."
  },
  {
    "Sub_group": 3,
    "Parameter_label": "PD-L1 expression",
    "Method": "RNAseq",
    "Parameter": "PDL1_expression_RNAseq",
    "Component_type": "expression",
    "Group": "Molecular",
    "Source": "Calculation from NGS",
    "DB_ID": "PDL1_expression_RNAseq.numeric",
    "Primary_id": "Mucosal_Melanoma.PDL1_expression_RNAseq.numeric",
    "Clinical_Data_Sheet": "Mucosal_Melanoma",
    "Label": "Yes",
    "Description": "**PD-L1 expression** is a potential **favorable prognostic factor** in mucosal melanoma. Research data suggest that patients with PD-L1 positive mucosal melanoma (established by IHC) tend to show longer recurrence-free survival. It has also been demonstrated that PD-L1 expression (measured by IHC) **does not directly correlate with response to immune checkpoint blockade**, and PD-L1 negativity does not necessarily exclude the possibility of patients developing response to checkpoint inhibitors. PD-L1 is an immune checkpoint that inhibits T cell-mediated antitumor response. References: [26352784] (https://pubmed.ncbi.nlm.nih.gov/26352784/), [28737763] (https://pubmed.ncbi.nlm.nih.gov/28737763/)."
  }
]
