[
  {
    "Sub_group": "Clin-1",
    "Parameter_label": "Diagnosis",
    "Parameter": "diagnosis_for_display",
    "Component_type": "text",
    "Group": "Clinical",
    "DB_ID": "diagnosis_for_display.text",
    "Primary_id": "Neoplasm.diagnosis_for_display.text",
    "Clinical_Data_Sheet": "Complex_parameters_main",
    "Label": "No"
  },
  {
    "Sub_group": "Clin-1",
    "Parameter_label": "Patient sex, age",
    "Parameter": "sex_age",
    "Component_type": "text",
    "Group": "Clinical",
    "DB_ID": "sex_age.list",
    "Primary_id": "Neoplasm.sex_age.list",
    "Clinical_Data_Sheet": "Complex_parameters_main",
    "Label": "No"
  },
  {
    "Sub_group": "Clin-1",
    "Parameter_label": "TNM stage",
    "Parameter": "tnm_stage",
    "Component_type": "text",
    "Group": "Clinical",
    "DB_ID": "tnm_stage.list",
    "Primary_id": "Solid_Neoplasm.tnm_stage.list",
    "Clinical_Data_Sheet": "Complex_parameters_main",
    "Label": "No"
  },
  {
    "Sub_group": "Clin-1",
    "Parameter_label": "Stage",
    "Parameter": "stage",
    "Component_type": "text",
    "Group": "Clinical",
    "Source": "Calculation from input",
    "DB_ID": "stage.enumeration",
    "Primary_id": "Non_Small_Cell_Lung_Carcinoma.stage.enumeration",
    "Clinical_Data_Sheet": "Non_Small_Cell_Lung_Carcinoma",
    "Label": "Yes"
  },
  {
    "Sub_group": "Clin-1",
    "Parameter_label": "Histology",
    "Parameter": "histology",
    "Component_type": "text",
    "Group": "Clinical",
    "Source": "Input",
    "DB_ID": "histology.enumeration",
    "Primary_id": "Non_Small_Cell_Lung_Carcinoma.histology.enumeration",
    "Clinical_Data_Sheet": "Non_Small_Cell_Lung_Carcinoma",
    "Label": "Yes"
  },
  {
    "Sub_group": "Clin-1",
    "Parameter_label": "Grade",
    "Parameter": "grade",
    "Component_type": "text",
    "Group": "Clinical",
    "Source": "Input",
    "DB_ID": "grade.enumeration",
    "Primary_id": "Non_Small_Cell_Lung_Carcinoma.grade.enumeration",
    "Clinical_Data_Sheet": "Non_Small_Cell_Lung_Carcinoma",
    "Label": "Yes"
  },
  {
    "Sub_group": "Clin-2",
    "Parameter_label": "Smoking status",
    "Parameter": "smoking_status",
    "Component_type": "text",
    "Group": "Clinical",
    "Source": "Input",
    "DB_ID": "smoking_status.enumeration",
    "Primary_id": "Non_Small_Cell_Lung_Carcinoma.smoking_status.enumeration",
    "Clinical_Data_Sheet": "Non_Small_Cell_Lung_Carcinoma",
    "Label": "Yes"
  },
  {
    "Sub_group": "Clin-2 _ Karnofsky or ECOG",
    "Parameter_label": "ECOG",
    "Parameter": "ecog",
    "Component_type": "text",
    "Group": "Clinical",
    "Source": "Input",
    "DB_ID": "ecog.enumeration",
    "Primary_id": "Non_Small_Cell_Lung_Carcinoma.ecog.enumeration",
    "Clinical_Data_Sheet": "Non_Small_Cell_Lung_Carcinoma",
    "Label": "Yes"
  },
  {
    "Sub_group": "Clin-2",
    "Parameter_label": "Treatment status",
    "Parameter": "treatment_modality",
    "Component_type": "text",
    "Group": "Clinical",
    "Source": "Input",
    "DB_ID": "treatment_modality.enumeration",
    "Primary_id": "Non_Small_Cell_Lung_Carcinoma.treatment_modality.enumeration",
    "Clinical_Data_Sheet": "Non_Small_Cell_Lung_Carcinoma",
    "Label": "Yes"
  },
  {
    "Sub_group": 1,
    "Parameter_label": "ALK fusion",
    "Method": "RNAseq",
    "Parameter": "ALK_rearrangement_RNAseq",
    "Component_type": "boolean",
    "Group": "Molecular",
    "Source": "Calculation from NGS",
    "DB_ID": "ALK_rearrangement_RNAseq.list",
    "Primary_id": "Non_Small_Cell_Lung_Carcinoma.ALK_rearrangement_RNAseq.list",
    "Clinical_Data_Sheet": "Non_Small_Cell_Lung_Carcinoma",
    "Label": "Yes",
    "Description": "**ALK rearrangements**, or ALK fusions, is a major predictive biomarker in non-small cell lung cancer (NSCLC). ALK fusions are often found in tumors with adenocarcinoma histology in never of light smokers. The presence of ALK fusions generally predicts **responsiveness to ALK tyrosine kinase inhibitors** (TKIs) and **resistance to EGFR TKIs** as ALK fusions and EGFR mutations are commonly mutually exclusive. ALK encodes a receptor tyrosine kinase that transduces anti-apoptotic signaling and regulates cell proliferation. References: [31454018] (https://pubmed.ncbi.nlm.nih.gov/31454018/)."
  },
  {
    "Sub_group": 1,
    "Parameter_label": "BRAF mutations",
    "Method": "WES",
    "Parameter": "braf_mutation",
    "Component_type": "string",
    "Group": "Molecular",
    "Source": "Calculation from NGS",
    "DB_ID": "braf_mutation.list",
    "Primary_id": "Non_Small_Cell_Lung_Carcinoma.braf_mutation.list",
    "Clinical_Data_Sheet": "Non_Small_Cell_Lung_Carcinoma",
    "Label": "Yes",
    "Description": "**BRAF V600 mutation** is a predictive biomarker for NSCLC. It has been demonstrated that NSCLC patients with BRAF V600-mutant tumors **benefit from BRAF and MEK inhibitors**. BRAF V600 mutations appear to be mutually exclusive with mutations in the KRAS and EGFR genes and rearrangements in ALK and ROS1. BRAF is a proto-oncogene that encodes a protein kinase involved in the RAS/MAPK signaling regulating cell division and differentiation. References: [31959346] (https://pubmed.ncbi.nlm.nih.gov/31959346/), [30285222] (https://pubmed.ncbi.nlm.nih.gov/30285222/)."
  },
  {
    "Sub_group": 1,
    "Parameter_label": "EGFR mutations",
    "Method": "WES",
    "Parameter": "EGFR_mutation",
    "Component_type": "string",
    "Group": "Molecular",
    "Source": "Calculation from NGS",
    "DB_ID": "EGFR_mutation.list",
    "Primary_id": "Non_Small_Cell_Lung_Carcinoma.EGFR_mutation.list",
    "Clinical_Data_Sheet": "Non_Small_Cell_Lung_Carcinoma",
    "Label": "Yes",
    "Description": "**EGFR mutations** predict response to EGFR tyrosine kinase inhibitors (TKIs) in non-small cell lung cancer (NSCLC). Most commonly, EGFR mutations (e.g., affecting exons 19 or 21) are associated with **responsiveness to EGFR TKIs**. Certain mutations in EGFR, however, e.g. exon 20 insertions or T790M mutation, predict resistance to EGFR TKI therapy. EGFR encodes a membrane receptor that transduces extracellular growth factor signaling, thus promoting cell proliferation. References: [19410185] (https://pubmed.ncbi.nlm.nih.gov/19410185/), [18227510] (https://pubmed.ncbi.nlm.nih.gov/18227510/)."
  },
  {
    "Sub_group": 1,
    "Parameter_label": "MET mutations",
    "Method": "WES",
    "Parameter": "MET_mutation",
    "Component_type": "string",
    "Group": "Molecular",
    "Source": "Calculation from NGS",
    "DB_ID": "MET_mutation.list",
    "Primary_id": "Non_Small_Cell_Lung_Carcinoma.MET_mutation.list",
    "Clinical_Data_Sheet": "Non_Small_Cell_Lung_Carcinoma",
    "Label": "Yes",
    "Description": "**MET mutations** are a therapeutic target in the therapy of NSCLC. Activating mutations in the MET gene (e.g., METex14) are known oncogenic drivers in the pathogenesis of NSCLC. Patients with METex14-positive or MET-amplified tumors respond well to **MET-targeted tyrosine kinase inhibitors** (capmatinib, crizotinib) but are less likely to benefit from immunotherapy. MET amplification is a possible mechanism underlying **resistance to EGFR tyrosine kinase inhibitors**. MET encodes a tyrosine kinase receptor that plays a role in cell proliferation and survival. References: [21623265] (https://pubmed.ncbi.nlm.nih.gov/21623265/), [25971938] (https://pubmed.ncbi.nlm.nih.gov/25971938/), [25971939] (https://pubmed.ncbi.nlm.nih.gov/25971939/), [26729443] (https://pubmed.ncbi.nlm.nih.gov/26729443/), [31564718] (https://pubmed.ncbi.nlm.nih.gov/31564718/)."
  },
  {
    "Sub_group": 1,
    "Parameter_label": "NTRK fusion",
    "Method": "RNAseq",
    "Parameter": "NTRK_fusion_RNAseq",
    "Component_type": "boolean",
    "Group": "Molecular",
    "Source": "Calculation from NGS",
    "DB_ID": "NTRK_fusion_RNAseq.list",
    "Primary_id": "Non_Small_Cell_Lung_Carcinoma.NTRK_fusion_RNAseq.list",
    "Clinical_Data_Sheet": "Non_Small_Cell_Lung_Carcinoma",
    "Label": "Yes",
    "Description": "**NTRK gene fusions** are oncogenic driver events and therapeutic targets in non-small cell lung cancer (NSCLC). NTRK fusions do not commonly co-occur with other genetic alterations in NSCLC. NTRK gene fusion-positive tumors respond well to specific **targeted tyrosine kinase inhibitors** (larotrectinib, entrectinib). NTRK fusion genes encode chimeric proteins that activate signaling involved in cell survival, proliferation, and invasion. References: [31454018] (https://pubmed.ncbi.nlm.nih.gov/31454018/)."
  },
  {
    "Sub_group": 1,
    "Parameter_label": "RET rearrangement",
    "Method": "RNAseq",
    "Parameter": "RET_rearrangement_RNAseq",
    "Component_type": "boolean",
    "Group": "Molecular",
    "Source": "Calculation from NGS",
    "DB_ID": "RET_rearrangement_RNAseq.list",
    "Primary_id": "Non_Small_Cell_Lung_Carcinoma.RET_rearrangement_RNAseq.list",
    "Clinical_Data_Sheet": "Non_Small_Cell_Lung_Carcinoma",
    "Label": "Yes",
    "Description": "**RET rearrangement** is an emerging predictive biomarker for non-small cell lung cancer (NSCLC). RET rearrangements rarely co-occur with other genetic alterations in NSCLC and may be associated with a lack of response to immunotherapy. **Several targeted agents directed against RET rearrangement are currently available** (e.g., selpercatinib, cabozantinib, vandetanib). RET rearrangements commonly result in the overexpression of the RET protein. RET encodes a tyrosine kinase receptor that activated signaling cascaded promoting cell survival, growth, and motility. References: [27825636] (https://pubmed.ncbi.nlm.nih.gov/27825636/), [27803005] (https://pubmed.ncbi.nlm.nih.gov/27803005/)."
  },
  {
    "Sub_group": 1,
    "Parameter_label": "ROS1 fusion",
    "Method": "RNAseq",
    "Parameter": "ROS1_rearrangement_RNAseq",
    "Component_type": "boolean",
    "Group": "Molecular",
    "Source": "Calculation from NGS",
    "DB_ID": "ROS1_rearrangement_RNAseq.list",
    "Primary_id": "Non_Small_Cell_Lung_Carcinoma.ROS1_rearrangement_RNAseq.list",
    "Clinical_Data_Sheet": "Non_Small_Cell_Lung_Carcinoma",
    "Label": "Yes",
    "Description": "**ROS1 rearrangements** are associated with treatment outcomes in non-small cell lung cancer (NSCLC). ROS1 fusions suggest **responsiveness to ROS1 tyrosine kinase inhibitors**. Gene fusions are the most common type of ROS1 rearrangements in NSCLC and generally result in the dysregulation of the ROS1-mediated signaling. ROS1 rearrangements occur more frequently in the absence of EGFR and KRAS mutations. ROS1 is a proto-oncogene that encodes a receptor tyrosine kinase involved in cell differentiation, survival, and growth. References: [31454018] (https://pubmed.ncbi.nlm.nih.gov/31454018/)."
  },
  {
    "Sub_group": 2,
    "Parameter_label": "HER2 (ERBB2) mutations",
    "Method": "WES",
    "Parameter": "ERBB2_mutation",
    "Component_type": "string",
    "Group": "Molecular",
    "Source": "Calculation from NGS",
    "DB_ID": "ERBB2_mutation.list",
    "Primary_id": "Non_Small_Cell_Lung_Carcinoma.ERBB2_mutation.list",
    "Clinical_Data_Sheet": "Non_Small_Cell_Lung_Carcinoma",
    "Label": "Yes",
    "Description": "**ERBB2 (or HER2) mutations** are an emerging predictive biomarker for non-small cell lung cancer (NSCLC). Ado-trastuzumab is an **available novel targeted agent** in ERBB2-mutated NSCLC. ERBB2 gene amplification may underlie tumor resistance to EGFR inhibitors. ERBB2 encodes a receptor tyrosine kinase important for the activation of signaling pathways that regulate cell cycle, differentiation, and apoptosis. Activating mutations in this gene are a known oncogenic driver in lung cancer. References: [15457249] (https://pubmed.ncbi.nlm.nih.gov/15457249/), [25079552] (https://pubmed.ncbi.nlm.nih.gov/25079552/), [24846037] (https://pubmed.ncbi.nlm.nih.gov/24846037/), [29989854] (https://pubmed.ncbi.nlm.nih.gov/29989854/)."
  },
  {
    "Sub_group": 2,
    "Parameter_label": "KRAS mutations",
    "Method": "WES",
    "Parameter": "KRAS_mutation",
    "Component_type": "string",
    "Group": "Molecular",
    "Source": "Calculation from NGS",
    "DB_ID": "KRAS_mutation.list",
    "Primary_id": "Non_Small_Cell_Lung_Carcinoma.KRAS_mutation.list",
    "Clinical_Data_Sheet": "Non_Small_Cell_Lung_Carcinoma",
    "Label": "Yes",
    "Description": "**KRAS mutations** show both prognostic and predictive value in non-small cell lung cancer (NSCLC). Patients with KRAS-mutant tumors demonstrate **shorter survival** than those with the wild-type status and are **not likely to benefit from EGFR tyrosine kinase inhibitors**. KRAS mutations rarely co-occur with other genetic alterations in NSCLC. Various treatment options for KRAS-mutant lung cancer are currently under investigation. KRAS is a proto-oncogene, whose product is a major regulator of cell proliferation. References: [23014527] (https://pubmed.ncbi.nlm.nih.gov/23014527/), [26028111] (https://pubmed.ncbi.nlm.nih.gov/26028111/)."
  },
  {
    "Sub_group": 2,
    "Parameter_label": "TP53 mutations",
    "Method": "WES",
    "Parameter": "TP53_mutation",
    "Component_type": "string",
    "Group": "Molecular",
    "Source": "Calculation from NGS",
    "DB_ID": "TP53_mutation.list",
    "Primary_id": "Non_Small_Cell_Lung_Carcinoma.TP53_mutation.list",
    "Clinical_Data_Sheet": "Non_Small_Cell_Lung_Carcinoma",
    "Label": "Yes",
    "Description": "**TP53 mutations** are an emerging prognostic and predictive biomarker for non-small cell lung cancer (NSCLC). TP53-mutant tumors may be associated with **poor survival** in patients with early-stage NSCLC and KRAS-mutant adenocarcinomas. The co-occurrence of mutations in the TP53 and EGFR or ALK genes may affect the **response to tyrosine kinase inhibitors**. An increased TP53 mutation allelic fraction is a potential predictor of **small-cell transformation** in NSCLC. TP53 encodes a major tumor suppressor protein. References: [28101350] (https://pubmed.ncbi.nlm.nih.gov/28101350/), [31016879] (https://pubmed.ncbi.nlm.nih.gov/31016879/), [30766968] (https://pubmed.ncbi.nlm.nih.gov/30766968/), [30885352] (https://pubmed.ncbi.nlm.nih.gov/30885352/)."
  },
  {
    "Sub_group": 2,
    "Parameter_label": "KEAP1 mutations",
    "Method": "WES",
    "Parameter": "KEAP1_mutation",
    "Component_type": "string",
    "Group": "Molecular",
    "Source": "Calculation from NGS",
    "DB_ID": "KEAP1_mutation.list",
    "Primary_id": "Non_Small_Cell_Lung_Carcinoma.KEAP1_mutation.list",
    "Clinical_Data_Sheet": "Non_Small_Cell_Lung_Carcinoma",
    "Label": "Yes",
    "Description": "**KEAP1 mutations** are associated with therapy responses in non-small cell lung cancer (NSCLC). KEAP1 mutations were seen to correlate with **reduced sensitivity to cytostatic and immunotherapeutic agents** in NSCLC. Patients with upregulated NRF2 signaling due to KEAP1 or NFE2L2 mutations may **benefit from mTOR and glutaminase inhibitors**, which makes KEAP1 mutations a potential predictive biomarker. KEAP1 is involved in a cell’s response to oxidative stress. It acts as a negative regulator of NFR2, which induces transcription of cytoprotective genes.  References: [33229301] (https://pubmed.ncbi.nlm.nih.gov/33229301/)."
  },
  {
    "Sub_group": 2,
    "Parameter_label": "STK11 mutations",
    "Method": "WES",
    "Parameter": "STK11_mutation",
    "Component_type": "string",
    "Group": "Molecular",
    "Source": "Calculation from NGS",
    "DB_ID": "STK11_mutation.list",
    "Primary_id": "Non_Small_Cell_Lung_Carcinoma.STK11_mutation.list",
    "Clinical_Data_Sheet": "Non_Small_Cell_Lung_Carcinoma",
    "Label": "Yes",
    "Description": "**STK11 mutations** are a poor prognostic factor in non-small cell lung cancer (NSCLC). STK11 mutations often co-occur with KRAS mutations in NSCLC and may indicate a more aggressive molecular subtype. STK11 mutations in KRAS-mutant tumors were seen to be associated with **poorer survival outcomes** and worse responses to immunotherapy. The independent prognostic value of STK11 mutations, however, remains debatable. STK11 encodes a tumor suppressor protein involved in cell polarity, metabolism, apoptosis, and response to DNA damage.  References: [29191602] (https://pubmed.ncbi.nlm.nih.gov/29191602/), [29773717] (https://pubmed.ncbi.nlm.nih.gov/29773717/)."
  },
  {
    "Sub_group": 2,
    "Parameter_label": "Tumor mutational burden",
    "Method": "WES",
    "Parameter": "tumor_mutational_burden",
    "Component_type": "boolean",
    "Group": "Molecular",
    "Source": "Calculation from NGS",
    "DB_ID": "tumor_mutational_burden.numeric",
    "Primary_id": "Non_Small_Cell_Lung_Carcinoma.tumor_mutational_burden.numeric",
    "Clinical_Data_Sheet": "Non_Small_Cell_Lung_Carcinoma",
    "Label": "Yes",
    "Description": "**Tumor mutational burden (TMB)** is a predictive biomarker for NSCLC. High TMB (TMB-H) **predicts response to immunotherapies** (immune checkpoint inhibitors, anti-CTLA4 agents, etc.). **Pembrolizumab is an approved tissue-agnostic agent** for the treatment of TMB-H solid tumors. TMB reflects the total number of coding somatic mutations in a tumor. TMB-H results in an elevated neoantigen load that can be recognized by cytotoxic lymphocytes thus enhancing response to immunotherapy. References: [30285222] (https://pubmed.ncbi.nlm.nih.gov/30285222/), [31762941] (https://pubmed.ncbi.nlm.nih.gov/31762941/)."
  },
  {
    "Sub_group": 3,
    "Parameter_label": "PD-L1 expression",
    "Group_label": "PD-L1 expression",
    "Parameter_group": "pdl1_expression",
    "Show_priority": 1,
    "Method_priority": "IHC,RNAseq",
    "Method_for_grouping": "IHC",
    "Method": "IHC",
    "Parameter": "PDL1_expression",
    "Component_type": "boolean",
    "Group": "Molecular",
    "Source": "Input",
    "DB_ID": "PDL1_expression.numeric",
    "Primary_id": "Non_Small_Cell_Lung_Carcinoma.PDL1_expression.numeric",
    "Clinical_Data_Sheet": "Non_Small_Cell_Lung_Carcinoma",
    "Label": "Yes",
    "Description": "**PD-L1 expression** defines a subgroup of NSCLC patients who are likely to benefit from immunotherapy. Though not optimal, PD-L1 expression remains the best **predictor of response to anti-PD-1/PD-L1 therapy**. The IHC-based diagnostic test for PD-L1 expression approved by FDA employs Tumor Proportion Score, which is the percentage of positively stained viable tumor cells. PD-L1 is expressed on tumor cells and inhibits T cell-mediated antitumor response. The frequency of PD-L1 positivity among the patients with Stage IIIB/IV NSCLC ranges from 22% to 52% depending on the cut-off value. References: [31319978] (https://pubmed.ncbi.nlm.nih.gov/31319978/)."
  },
  {
    "Sub_group": 3,
    "Parameter_label": "PD-L1 expression",
    "Group_label": "PD-L1 expression",
    "Parameter_group": "pdl1_expression",
    "Show_priority": 1,
    "Method_priority": "IHC,RNAseq",
    "Method_for_grouping": "RNAseq",
    "Method": "RNAseq",
    "Parameter": "PDL1_expression_RNAseq",
    "Component_type": "expression",
    "Group": "Molecular",
    "Source": "Calculation from NGS",
    "DB_ID": "PDL1_expression_RNAseq.numeric",
    "Primary_id": "Non_Small_Cell_Lung_Carcinoma.PDL1_expression_RNAseq.numeric",
    "Clinical_Data_Sheet": "Non_Small_Cell_Lung_Carcinoma",
    "Label": "Yes"
  },
  {
    "Sub_group": 3,
    "Parameter_label": "Ki-67 expression",
    "Group_label": "Ki-67 expression",
    "Parameter_group": "Ki_67_expression",
    "Show_priority": 1,
    "Method_priority": "IHC,RNAseq",
    "Method_for_grouping": "IHC",
    "Method": "IHC",
    "Parameter": "Ki_67_expression",
    "Component_type": "boolean",
    "Group": "Molecular",
    "Source": "Input",
    "DB_ID": "Ki_67_expression.numeric",
    "Primary_id": "Non_Small_Cell_Lung_Carcinoma.Ki_67_expression.numeric",
    "Clinical_Data_Sheet": "Non_Small_Cell_Lung_Carcinoma",
    "Label": "Yes",
    "Description": "**Ki-67 expression** is associated with clinical outcomes in patients with non-small cell lung cancer (NSCLC). High expression of Ki-67 has been shown to correlate with **shorter survival** in NSCLC patients, including those receiving chemotherapy. Ki-67 is a marker of dividing cells and serves as an indicator of the proliferative activity in cancer. References: [26174366] (https://pubmed.ncbi.nlm.nih.gov/26174366/), [24737581] (https://pubmed.ncbi.nlm.nih.gov/24737581/), [https://doi.org/10.1200/JCO.2019.37.15_suppl.e20576] (https://doi.org/10.1200/JCO.2019.37.15_suppl.e20576)."
  },
  {
    "Sub_group": 3,
    "Parameter_label": "Ki-67 expression",
    "Group_label": "Ki-67 expression",
    "Parameter_group": "Ki_67_expression",
    "Show_priority": 1,
    "Method_priority": "IHC,RNAseq",
    "Method_for_grouping": "RNAseq",
    "Method": "RNAseq",
    "Parameter": "MKI67_expression",
    "Component_type": "expression",
    "Group": "Molecular",
    "Source": "Calculation from NGS",
    "DB_ID": "MKI67_expression.numeric",
    "Primary_id": "Non_Small_Cell_Lung_Carcinoma.MKI67_expression.numeric",
    "Clinical_Data_Sheet": "Non_Small_Cell_Lung_Carcinoma",
    "Label": "Yes"
  },
  {
    "Sub_group": 3,
    "Parameter_label": "Mutational signature of smoking",
    "Method": "WES",
    "Parameter": "smoking_wes",
    "Component_type": "string",
    "Group": "Molecular",
    "Source": "Calculation from NGS",
    "DB_ID": "smoking_wes.numeric",
    "Primary_id": "Non_Small_Cell_Lung_Carcinoma.smoking_wes.numeric",
    "Clinical_Data_Sheet": "Non_Small_Cell_Lung_Carcinoma",
    "Label": "Yes",
    "Description": "**Mutational signature of smoking** is an emerging biomarker for non-small cell lung cancer. It shows what proportion mutations commonly associated with smoking comprise of all detected mutations. Generally, smoking causes an increase in the overall burdens of certain mutations. It has been shown that different mutational signatures contribute to carcinogenesis in various types of cancer, and their influence differs depending on the tissue exposed. The key mechanisms underlying gene mutations in smokers are DNA damage due to misreplication and suppressed DNA repair. References: [27811275] (https://pubmed.ncbi.nlm.nih.gov/27811275/), [30236628] (https://pubmed.ncbi.nlm.nih.gov/30236628/)."
  },
  {
    "Sub_group": 3,
    "Parameter_label": "Microsatellite status",
    "Method": "WES",
    "Parameter": "MSI",
    "Component_type": "boolean",
    "Group": "Molecular",
    "Source": "Calculation from NGS",
    "DB_ID": "MSI.enumeration",
    "Primary_id": "Non_Small_Cell_Lung_Carcinoma.MSI.enumeration",
    "Clinical_Data_Sheet": "Non_Small_Cell_Lung_Carcinoma",
    "Label": "Yes",
    "Description": "**Microsatellite instability-high (MSI-H)** is a phenotype characterized by hypermutability that results from defective DNA mismatch repair (dMMR) often due to mutations in the genes involved in the regulation of DNA repair. The dMMR/MSI-H status **predicts response to immune checkpoint blockade regardless of the tumor origin**. Pembrolizumab is an approved agent for MSI-H/dMMR solid tumors. MSI-H tumors may show higher neoantigen load enhancing response to immunotherapy. References: [29754585] (https://pubmed.ncbi.nlm.nih.gov/29754585/), [28741532] (https://pubmed.ncbi.nlm.nih.gov/28741532/)."
  },
  {
    "Sub_group": 3,
    "Parameter_label": "Somatic HRR gene alterations",
    "Method": "WES",
    "Parameter": "somatic_HRR_genes_mutations",
    "Component_type": "string",
    "Group": "Molecular",
    "Source": "Calculation from NGS",
    "DB_ID": "somatic_HRR_genes_mutations.list",
    "Primary_id": "Non_Small_Cell_Lung_Carcinoma.somatic_HRR_genes_mutations.list",
    "Clinical_Data_Sheet": "Non_Small_Cell_Lung_Carcinoma",
    "Label": "Yes",
    "Description": "**Germline mutations in homologous recombination repair (HRR) genes**, namely ARID1A, ARID2, ATR, FANCA, RAD50, CHEK2, ATM, BRCA1, BRCA2, BAP1, ATRX, BRIP1, is a predictive biomarker in non-small cell lung cancer (NSCLC). Through the phenomenon of synthetic lethality, HRR mutations confer tumor **sensitivity to PARP inhibitors and platinum chemotherapy**. HRR genes play are important for the DNA repair and maintenance of genomic stability; HRR mutations result in HRR deficiency characterized by an increased level of genetic alterations.  References: [31753490] (https://pubmed.ncbi.nlm.nih.gov/31753490/), [31542568] (https://pubmed.ncbi.nlm.nih.gov/31542568/)."
  },
  {
    "Sub_group": 3,
    "Parameter_label": "Germline HRR gene alterations",
    "Method": "WES",
    "Parameter": "germline_HRR_genes_mutations",
    "Component_type": "string",
    "Group": "Molecular",
    "Source": "Calculation from NGS",
    "DB_ID": "germline_HRR_genes_mutations.list",
    "Primary_id": "Non_Small_Cell_Lung_Carcinoma.germline_HRR_genes_mutations.list",
    "Clinical_Data_Sheet": "Non_Small_Cell_Lung_Carcinoma",
    "Label": "Yes",
    "Description": "**Somatic mutations in homologous recombination repair (HRR) genes**, namely ARID1A, ARID2, ATR, FANCA, RAD50, CHEK2, ATM, BRCA1, BRCA2, BAP1, ATRX, BRIP1, is a predictive biomarker in non-small cell lung cancer (NSCLC). Through the phenomenon of synthetic lethality, HRR mutations confer tumor **sensitivity to PARP inhibitors and platinum chemotherapy**. HRR genes play are important for the DNA repair and maintenance of genomic stability; HRR mutations result in HRR deficiency characterized by an increased level of genetic alterations.  References: [31753490] (https://pubmed.ncbi.nlm.nih.gov/31753490/), [31542568] (https://pubmed.ncbi.nlm.nih.gov/31542568/)."
  },
  {
    "Sub_group": 3,
    "Parameter_label": "Trop-2 expression",
    "Method": "RNAseq",
    "Parameter": "TROP2_expression",
    "Component_type": "expression",
    "Group": "Molecular",
    "Source": "Calculation from NGS",
    "DB_ID": "TROP2_expression.numeric",
    "Primary_id": "Non_Small_Cell_Lung_Carcinoma.TROP2_expression.numeric",
    "Clinical_Data_Sheet": "Non_Small_Cell_Lung_Carcinoma",
    "Label": "Yes",
    "Description": "**TROP2 expression** is an emerging biomarker in non-small cell lung cancer (NSCLC). Research data show that high expression of TROP2 (measured by IHC) may correlate with a poorer prognosis in lung adenocarcinoma patients. TROP2 is considered a promising **therapeutic target** in NSCLC patients, and clinical research of specific TROP2-targeted agents has shown encouraging results. TROP2 is a surface receptor that transduces signals in numerous pathways; it is involved in cell proliferation, self-renewal, and transformation. References: [28404926] (https://pubmed.ncbi.nlm.nih.gov/28404926/), [30881031] (https://pubmed.ncbi.nlm.nih.gov/30881031/)."
  },
  {
    "Sub_group": 3,
    "Parameter_label": "VEGF-A expression",
    "Method": "RNAseq",
    "Parameter": "VEGF_expression_RNAseq",
    "Component_type": "expression",
    "Group": "Molecular",
    "Source": "Calculation from NGS",
    "DB_ID": "VEGF_expression_RNAseq.numeric",
    "Primary_id": "Non_Small_Cell_Lung_Carcinoma.VEGF_expression_RNAseq.numeric",
    "Clinical_Data_Sheet": "Non_Small_Cell_Lung_Carcinoma",
    "Label": "Yes",
    "Description": "**VEGF expression** is a biomarker associated with the biology of non-small cell lung cancer (NSCLC). VEGF expression (detected by IHC) is commonly found in NSCLC patients. **Anti-VEGF therapy is part of standard treatment regimens** used in NSCLC regardless of VEGF expression as no correlation has been shown between VEGF expression levels and the efficacy of anti-VEGF agents. The VEGF family includes growth factors that promote angiogenesis and cell migration and inhibit apoptosis. References: [25344762] (https://pubmed.ncbi.nlm.nih.gov/25344762/), [21789115] (https://pubmed.ncbi.nlm.nih.gov/21789115/)."
  }
]
